  {
  "games": [
    {
      "game_name": "match_maker",
	  "max_saves" : 50, 
      "UPL" : 0.75,
	  "nbrCycles" : 5,
	  "difficulty" : "parseval", 
      "dimensions": [ 
        {
          "dimension_name": "difficulty_target",
          "dimension_values": [
            {
              "difficulty_level": 0,
              "value": "1"
            },
            {
              "difficulty_level": 1,
              "value": "2"
            },
            {
              "difficulty_level": 2,
              "value": "3"
            },
            {
              "difficulty_level": 3,
              "value": "4"
            },
            {
              "difficulty_level": 4,
              "value": "5"
            },
            {
              "difficulty_level": 5,
              "value": "6"
            }
          ]
        },
		{
		  "dimension_name": "difficulty_distractor",
          "dimension_values": [
            {
              "difficulty_level": 0,
              "value": "1"
            },
            {
              "difficulty_level": 1,
              "value": "2"
            },
            {
              "difficulty_level": 2,
              "value": "3"
            },
            {
              "difficulty_level": 3,
              "value": "4"
            },
            {
              "difficulty_level": 4,
              "value": "5"
            },
            {
              "difficulty_level": 5,
              "value": "6"
            }
          ]
        },
        {
          "dimension_name": "turns;fusion_duration;ghosts;good_combin;bad_combin",
          "dimension_values": [
            {
              "difficulty_level": 0,
              "value": "18;4;16;2;1"
            },
            {
              "difficulty_level": 1,
              "value": "20;4;18;2;2"
            },
            {
              "difficulty_level": 2,
              "value": "21;3;19;2;2"
            },
            {
              "difficulty_level": 3,
              "value": "22;3;21;2;2"
            },
            {
              "difficulty_level": 4,
              "value": "23;3;22;3;2"
            },
            {
              "difficulty_level": 5,
              "value": "24;2;24;3;3"
            }
          ]
        }          
      ]
    }
  ]
}
