%YAML 1.1
%TAG !u! tag:unity3d.com,2011:
--- !u!1001 &100100000
Prefab:
  m_ObjectHideFlags: 1
  serializedVersion: 2
  m_Modification:
    m_TransformParent: {fileID: 0}
    m_Modifications: []
    m_RemovedComponents: []
  m_ParentPrefab: {fileID: 0}
  m_RootGameObject: {fileID: 1709894191723328}
  m_IsPrefabParent: 1
--- !u!1 &1709894191723328
GameObject:
  m_ObjectHideFlags: 0
  m_PrefabParentObject: {fileID: 0}
  m_PrefabInternal: {fileID: 100100000}
  serializedVersion: 5
  m_Component:
  - component: {fileID: 4627222691335524}
  - component: {fileID: 114971987229780888}
  m_Layer: 0
  m_Name: LayerLane_1
  m_TagString: Untagged
  m_Icon: {fileID: 0}
  m_NavMeshLayer: 0
  m_StaticEditorFlags: 0
  m_IsActive: 1
--- !u!4 &4627222691335524
Transform:
  m_ObjectHideFlags: 1
  m_PrefabParentObject: {fileID: 0}
  m_PrefabInternal: {fileID: 100100000}
  m_GameObject: {fileID: 1709894191723328}
  m_LocalRotation: {x: 0, y: 0, z: 0, w: 1}
  m_LocalPosition: {x: 0, y: 0, z: 0}
  m_LocalScale: {x: 1, y: 1, z: 1}
  m_Children: []
  m_Father: {fileID: 0}
  m_RootOrder: 0
  m_LocalEulerAnglesHint: {x: 0, y: 0, z: 0}
--- !u!114 &114971987229780888
MonoBehaviour:
  m_ObjectHideFlags: 1
  m_PrefabParentObject: {fileID: 0}
  m_PrefabInternal: {fileID: 100100000}
  m_GameObject: {fileID: 1709894191723328}
  m_Enabled: 1
  m_EditorHideFlags: 0
  m_Script: {fileID: 11500000, guid: 7e22ad7af040512458a8d05f08fa73cc, type: 3}
  m_Name: 
  m_EditorClassIdentifier: 
  Type: 1
  LaneNumber: 1
  MinGapBetweenCollinettes: 0
  InitialSpeed: 896
  CurrentSpeed: 0
  BricksDecoration:
  - {fileID: 1880172236520966, guid: 0fcae1e8278e4254f8bbd41574ae065e, type: 2}
  Depth: 0
  Superposition: 64
  NbrLayersEndToEnd: 3
  WidthBrick: 2048
  PonctualElementsPrefab:
  - {fileID: 1486264841283126, guid: c321406df05f9b949a0a0c582b89472c, type: 2}
  - {fileID: 1486264841283126, guid: ed7eab557ccc6b7419b4944846c61865, type: 2}
  - {fileID: 1486264841283126, guid: e37d3ab6bfc55e341abbb281a4b513d6, type: 2}
  - {fileID: 1486264841283126, guid: 31d8d5370080c464fa2e867f5c413609, type: 2}
  FreqSpawningPonctualElements: 1
  NbrMinPonctualElementByBrick: 12
  NbrPonctualElementsMaxByBricks: 15
  YMin: -1
  YMax: -1
