%YAML 1.1
%TAG !u! tag:unity3d.com,2011:
--- !u!1001 &100100000
Prefab:
  m_ObjectHideFlags: 1
  serializedVersion: 2
  m_Modification:
    m_TransformParent: {fileID: 0}
    m_Modifications: []
    m_RemovedComponents: []
  m_ParentPrefab: {fileID: 0}
  m_RootGameObject: {fileID: 1709894191723328}
  m_IsPrefabParent: 1
--- !u!1 &1709894191723328
GameObject:
  m_ObjectHideFlags: 0
  m_PrefabParentObject: {fileID: 0}
  m_PrefabInternal: {fileID: 100100000}
  serializedVersion: 5
  m_Component:
  - component: {fileID: 4627222691335524}
  - component: {fileID: 114971987229780888}
  m_Layer: 0
  m_Name: LayerForegroundBigRock
  m_TagString: Untagged
  m_Icon: {fileID: 0}
  m_NavMeshLayer: 0
  m_StaticEditorFlags: 0
  m_IsActive: 1
--- !u!4 &4627222691335524
Transform:
  m_ObjectHideFlags: 1
  m_PrefabParentObject: {fileID: 0}
  m_PrefabInternal: {fileID: 100100000}
  m_GameObject: {fileID: 1709894191723328}
  m_LocalRotation: {x: 0, y: 0, z: 0, w: 1}
  m_LocalPosition: {x: 0, y: 0, z: 0}
  m_LocalScale: {x: 1, y: 1, z: 1}
  m_Children: []
  m_Father: {fileID: 0}
  m_RootOrder: 0
  m_LocalEulerAnglesHint: {x: 0, y: 0, z: 0}
--- !u!114 &114971987229780888
MonoBehaviour:
  m_ObjectHideFlags: 1
  m_PrefabParentObject: {fileID: 0}
  m_PrefabInternal: {fileID: 100100000}
  m_GameObject: {fileID: 1709894191723328}
  m_Enabled: 1
  m_EditorHideFlags: 0
  m_Script: {fileID: 11500000, guid: 7e22ad7af040512458a8d05f08fa73cc, type: 3}
  m_Name: 
  m_EditorClassIdentifier: 
  Type: 3
  LaneNumber: 0
  MinGapBetweenCollinettes: 0
  InitialSpeed: 1088
  CurrentSpeed: 0
  BricksDecoration:
  - {fileID: 1665863764750806, guid: 50d8c78773a6f9847aa0d9c6acff7656, type: 2}
  Depth: 2
  Superposition: 64
  NbrLayersEndToEnd: 3
  WidthBrick: 2048
  PonctualElementsPrefab:
  - {fileID: 0}
  - {fileID: 0}
  - {fileID: 0}
  FreqSpawningPonctualElements: 0.5
  NbrMinPonctualElementByBrick: 0
  NbrPonctualElementsMaxByBricks: 1
  YMin: 25
  YMax: 60
