%YAML 1.1
%TAG !u! tag:unity3d.com,2011:
--- !u!74 &7400000
AnimationClip:
  m_ObjectHideFlags: 0
  m_PrefabParentObject: {fileID: 0}
  m_PrefabInternal: {fileID: 0}
  m_Name: CP_COURSE
  serializedVersion: 6
  m_Legacy: 0
  m_Compressed: 0
  m_UseHighQualityCurve: 1
  m_RotationCurves: []
  m_CompressedRotationCurves: []
  m_EulerCurves:
  - curve:
      serializedVersion: 2
      m_Curve:
      - serializedVersion: 2
        time: 0
        value: {x: 0, y: 0, z: 48.39103}
        inSlope: {x: 0, y: 0, z: 0}
        outSlope: {x: 0, y: 0, z: 0}
        tangentMode: 0
      - serializedVersion: 2
        time: 0.26086956
        value: {x: 0, y: 0, z: 18.535374}
        inSlope: {x: 0, y: 0, z: -344.12726}
        outSlope: {x: 0, y: 0, z: -344.12726}
        tangentMode: 0
      - serializedVersion: 2
        time: 0.5217391
        value: {x: 0, y: 0, z: -131.15364}
        inSlope: {x: 0, y: 0, z: -114.84029}
        outSlope: {x: 0, y: 0, z: -114.84029}
        tangentMode: 0
      - serializedVersion: 2
        time: 1.0434783
        value: {x: 0, y: 0, z: 48.39103}
        inSlope: {x: 0, y: 0, z: -0}
        outSlope: {x: 0, y: 0, z: -0}
        tangentMode: 0
      m_PreInfinity: 2
      m_PostInfinity: 2
      m_RotationOrder: 4
    path: TRONC_CTRL_GRP/TRONC_CTRL/D_PIED_CTRL_GRP/D_PIED_CTRL
  - curve:
      serializedVersion: 2
      m_Curve:
      - serializedVersion: 2
        time: 0
        value: {x: 0, y: 0, z: -130.67056}
        inSlope: {x: 0, y: 0, z: 1.7978567}
        outSlope: {x: 0, y: 0, z: 1.7978567}
        tangentMode: 0
      - serializedVersion: 2
        time: 0.5217391
        value: {x: 0, y: 0, z: 48.689156}
        inSlope: {x: 0, y: 0, z: -0.2470756}
        outSlope: {x: 0, y: 0, z: -0.2470756}
        tangentMode: 0
      - serializedVersion: 2
        time: 0.7826087
        value: {x: 0, y: 0, z: 18.53537}
        inSlope: {x: 0, y: 0, z: -350.70377}
        outSlope: {x: 0, y: 0, z: -350.70377}
        tangentMode: 0
      - serializedVersion: 2
        time: 1.0434783
        value: {x: 0, y: 0, z: -130.67056}
        inSlope: {x: 0, y: 0, z: 2.3024158}
        outSlope: {x: 0, y: 0, z: 2.3024158}
        tangentMode: 0
      m_PreInfinity: 2
      m_PostInfinity: 2
      m_RotationOrder: 4
    path: TRONC_CTRL_GRP/TRONC_CTRL/G_PIED_CTRL_GRP/G_PIED_CTRL
  - curve:
      serializedVersion: 2
      m_Curve:
      - serializedVersion: 2
        time: 0
        value: {x: 0, y: 0, z: -47.59197}
        inSlope: {x: 0, y: 0, z: -0.000016869937}
        outSlope: {x: 0, y: 0, z: -0.000016869937}
        tangentMode: 0
      - serializedVersion: 2
        time: 0.5217391
        value: {x: 0, y: 0, z: 161.4481}
        inSlope: {x: 0, y: 0, z: 341.7298}
        outSlope: {x: 0, y: 0, z: 341.7298}
        tangentMode: 0
      - serializedVersion: 2
        time: 1.0434783
        value: {x: 0, y: 0, z: -47.59197}
        inSlope: {x: 0, y: 0, z: 0.5032507}
        outSlope: {x: 0, y: 0, z: 0.5032507}
        tangentMode: 0
      m_PreInfinity: 2
      m_PostInfinity: 2
      m_RotationOrder: 4
    path: TRONC_CTRL_GRP/TRONC_CTRL/D_MAIN_CTRL_GRP/D_MAIN_CTRL
  - curve:
      serializedVersion: 2
      m_Curve:
      - serializedVersion: 2
        time: 0
        value: {x: 0, y: 0, z: 161.17249}
        inSlope: {x: 0, y: 0, z: 399.5992}
        outSlope: {x: 0, y: 0, z: 399.5992}
        tangentMode: 0
      - serializedVersion: 2
        time: 0.5217391
        value: {x: 0, y: 0, z: -47.59197}
        inSlope: {x: 0, y: 0, z: -0.5368571}
        outSlope: {x: 0, y: 0, z: -0.5368571}
        tangentMode: 0
      - serializedVersion: 2
        time: 1.0434783
        value: {x: 0, y: 0, z: 161.17249}
        inSlope: {x: 0, y: 0, z: 443.89883}
        outSlope: {x: 0, y: 0, z: 443.89883}
        tangentMode: 0
      m_PreInfinity: 2
      m_PostInfinity: 2
      m_RotationOrder: 4
    path: TRONC_CTRL_GRP/TRONC_CTRL/G_MAIN_CTRL_GRP/G_MAIN_CTRL
  - curve:
      serializedVersion: 2
      m_Curve:
      - serializedVersion: 2
        time: 0
        value: {x: 0, y: 0, z: 17.57674}
        inSlope: {x: 0, y: 0, z: -0.055196825}
        outSlope: {x: 0, y: 0, z: -0.055196825}
        tangentMode: 0
      - serializedVersion: 2
        time: 0.26086956
        value: {x: 0, y: 0, z: 7.9683003}
        inSlope: {x: 0, y: 0, z: 0}
        outSlope: {x: 0, y: 0, z: 0}
        tangentMode: 0
      - serializedVersion: 2
        time: 0.5217391
        value: {x: 0, y: 0, z: 17.57674}
        inSlope: {x: 0, y: 0, z: -0.041881524}
        outSlope: {x: 0, y: 0, z: -0.041881524}
        tangentMode: 0
      - serializedVersion: 2
        time: 0.7826087
        value: {x: 0, y: 0, z: 7.9683003}
        inSlope: {x: 0, y: 0, z: 0}
        outSlope: {x: 0, y: 0, z: 0}
        tangentMode: 0
      - serializedVersion: 2
        time: 1.0434783
        value: {x: 0, y: 0, z: 17.57674}
        inSlope: {x: 0, y: 0, z: -0.34606174}
        outSlope: {x: 0, y: 0, z: -0.34606174}
        tangentMode: 0
      m_PreInfinity: 2
      m_PostInfinity: 2
      m_RotationOrder: 4
    path: TRONC_CTRL_GRP/TRONC_CTRL/COU_CTRL_GRP/COU_CTRL
  - curve:
      serializedVersion: 2
      m_Curve:
      - serializedVersion: 2
        time: 0
        value: {x: 0, y: 0, z: 7.604545}
        inSlope: {x: 0, y: 0, z: -0.2563496}
        outSlope: {x: 0, y: 0, z: -0.2563496}
        tangentMode: 0
      - serializedVersion: 2
        time: 0.26086956
        value: {x: 0, y: 0, z: 11.881088}
        inSlope: {x: 0, y: 0, z: 0}
        outSlope: {x: 0, y: 0, z: 0}
        tangentMode: 0
      - serializedVersion: 2
        time: 0.5217391
        value: {x: 0, y: 0, z: 7.604545}
        inSlope: {x: 0, y: 0, z: -0.0000038146973}
        outSlope: {x: 0, y: 0, z: -0.0000038146973}
        tangentMode: 0
      - serializedVersion: 2
        time: 0.7826087
        value: {x: 0, y: 0, z: 11.881088}
        inSlope: {x: 0, y: 0, z: 0}
        outSlope: {x: 0, y: 0, z: 0}
        tangentMode: 0
      - serializedVersion: 2
        time: 1.0434783
        value: {x: 0, y: 0, z: 7.604545}
        inSlope: {x: 0, y: 0, z: 0.24060166}
        outSlope: {x: 0, y: 0, z: 0.24060166}
        tangentMode: 0
      m_PreInfinity: 2
      m_PostInfinity: 2
      m_RotationOrder: 4
    path: TRONC_CTRL_GRP/TRONC_CTRL/TETE_CTRL_GRP/TETE_CTRL
  - curve:
      serializedVersion: 2
      m_Curve:
      - serializedVersion: 2
        time: 0
        value: {x: 0, y: 0, z: -22}
        inSlope: {x: 0, y: 0, z: -0.00036230322}
        outSlope: {x: 0, y: 0, z: -0.00036230322}
        tangentMode: 0
      - serializedVersion: 2
        time: 0.26086956
        value: {x: 0, y: 0, z: -14}
        inSlope: {x: 0, y: 0, z: 0}
        outSlope: {x: 0, y: 0, z: 0}
        tangentMode: 0
      - serializedVersion: 2
        time: 0.5217391
        value: {x: 0, y: 0, z: -22}
        inSlope: {x: 0, y: 0, z: 0}
        outSlope: {x: 0, y: 0, z: 0}
        tangentMode: 0
      - serializedVersion: 2
        time: 0.7826087
        value: {x: 0, y: 0, z: -14}
        inSlope: {x: 0, y: 0, z: 0}
        outSlope: {x: 0, y: 0, z: 0}
        tangentMode: 0
      - serializedVersion: 2
        time: 1.0434783
        value: {x: 0, y: 0, z: -22}
        inSlope: {x: 0, y: 0, z: -0.0000059250942}
        outSlope: {x: 0, y: 0, z: -0.0000059250942}
        tangentMode: 0
      m_PreInfinity: 2
      m_PostInfinity: 2
      m_RotationOrder: 4
    path: TRONC_CTRL_GRP/TRONC_CTRL
  m_PositionCurves:
  - curve:
      serializedVersion: 2
      m_Curve:
      - serializedVersion: 2
        time: 0
        value: {x: -0.11, y: -0.36, z: 0}
        inSlope: {x: -0.5025501, y: -4.309011, z: 0}
        outSlope: {x: -0.5025501, y: -4.309011, z: 0}
        tangentMode: 0
      - serializedVersion: 2
        time: 0.08695652
        value: {x: -0.13, y: -0.53, z: 0}
        inSlope: {x: 0.07666669, y: -0.24916643, z: 0}
        outSlope: {x: 0.07666669, y: -0.24916643, z: 0}
        tangentMode: 0
      - serializedVersion: 2
        time: 0.3478261
        value: {x: -0.03, y: -0.15, z: 0}
        inSlope: {x: -0.000000014901161, y: -0.000000059604645, z: 0}
        outSlope: {x: -0.000000014901161, y: -0.000000059604645, z: 0}
        tangentMode: 0
      - serializedVersion: 2
        time: 0.6086956
        value: {x: -0.13, y: -0.53, z: 0}
        inSlope: {x: -0.000000014901161, y: -0.000000059604645, z: 0}
        outSlope: {x: -0.000000014901161, y: -0.000000059604645, z: 0}
        tangentMode: 0
      - serializedVersion: 2
        time: 0.8695652
        value: {x: -0.03, y: -0.15, z: 0}
        inSlope: {x: -0.03833331, y: 0.124583304, z: 0}
        outSlope: {x: -0.03833331, y: 0.124583304, z: 0}
        tangentMode: 0
      - serializedVersion: 2
        time: 1.0434783
        value: {x: -0.11, y: -0.36, z: 0}
        inSlope: {x: -0.55388707, y: -3.164909, z: 0}
        outSlope: {x: -0.55388707, y: -3.164909, z: 0}
        tangentMode: 0
      m_PreInfinity: 2
      m_PostInfinity: 2
      m_RotationOrder: 4
    path: TRONC_CTRL_GRP/TRONC_CTRL
  - curve:
      serializedVersion: 2
      m_Curve:
      - serializedVersion: 2
        time: 0
        value: {x: -1.62, y: -0.83, z: 0}
        inSlope: {x: 0.005234418, y: 0.0000002527322, z: 0}
        outSlope: {x: 0.005234418, y: 0.0000002527322, z: 0}
        tangentMode: 0
      - serializedVersion: 2
        time: 0.26086956
        value: {x: -0.3696503, y: -0.1865626, z: 0}
        inSlope: {x: 7.1862392, y: -0.0000007570101, z: 0}
        outSlope: {x: 7.1862392, y: -0.0000007570101, z: 0}
        tangentMode: 0
      - serializedVersion: 2
        time: 0.5217391
        value: {x: 0.8800167, y: -0.7900052, z: 0}
        inSlope: {x: 0, y: -0.99084723, z: 0}
        outSlope: {x: 0, y: -0.99084723, z: 0}
        tangentMode: 0
      - serializedVersion: 2
        time: 0.7826087
        value: {x: -0.3707461, y: -0.7035264, z: 0}
        inSlope: {x: -7.19044, y: -0.076656654, z: 0}
        outSlope: {x: -7.19044, y: -0.076656654, z: 0}
        tangentMode: 0
      - serializedVersion: 2
        time: 1.0434783
        value: {x: -1.62, y: -0.83, z: 0}
        inSlope: {x: 0.011567941, y: -0.48481548, z: 0}
        outSlope: {x: 0.011567941, y: -0.48481548, z: 0}
        tangentMode: 0
      m_PreInfinity: 2
      m_PostInfinity: 2
      m_RotationOrder: 4
    path: TRONC_CTRL_GRP/TRONC_CTRL/D_PIED_CTRL_GRP/D_PIED_CTRL
  - curve:
      serializedVersion: 2
      m_Curve:
      - serializedVersion: 2
        time: 0
        value: {x: 0.88001674, y: -0.7900052, z: 0}
        inSlope: {x: 0.0000032786882, y: 0.33150217, z: 0}
        outSlope: {x: 0.0000032786882, y: 0.33150217, z: 0}
        tangentMode: 0
      - serializedVersion: 2
        time: 0.26086956
        value: {x: -0.36999142, y: -0.7035264, z: 0}
        inSlope: {x: -7.1875496, y: -0.076656654, z: 0}
        outSlope: {x: -7.1875496, y: -0.076656654, z: 0}
        tangentMode: 0
      - serializedVersion: 2
        time: 0.5217391
        value: {x: -1.62, y: -0.83, z: 0}
        inSlope: {x: 0, y: 0.9908473, z: 0}
        outSlope: {x: 0, y: 0.9908473, z: 0}
        tangentMode: 0
      - serializedVersion: 2
        time: 0.7826087
        value: {x: -0.36999145, y: -0.1865626, z: 0}
        inSlope: {x: 7.1875486, y: 0.0025829198, z: 0}
        outSlope: {x: 7.1875486, y: 0.0025829198, z: 0}
        tangentMode: 0
      - serializedVersion: 2
        time: 1.0434783
        value: {x: 0.88001674, y: -0.7900052, z: 0}
        inSlope: {x: -0.0000027117849, y: -2.3131967, z: 0}
        outSlope: {x: -0.0000027117849, y: -2.3131967, z: 0}
        tangentMode: 0
      m_PreInfinity: 2
      m_PostInfinity: 2
      m_RotationOrder: 4
    path: TRONC_CTRL_GRP/TRONC_CTRL/G_PIED_CTRL_GRP/G_PIED_CTRL
  - curve:
      serializedVersion: 2
      m_Curve:
      - serializedVersion: 2
        time: 0
        value: {x: 1.1600082, y: -0.82000065, z: 0}
        inSlope: {x: 0.00000071719643, y: -0.016732665, z: 0}
        outSlope: {x: 0.00000071719643, y: -0.016732665, z: 0}
        tangentMode: 0
      - serializedVersion: 2
        time: 0.26086956
        value: {x: -0.46359265, y: -0.14587164, z: 0}
        inSlope: {x: -6.917966, y: 0.00027912995, z: 0}
        outSlope: {x: -6.917966, y: 0.00027912995, z: 0}
        tangentMode: 0
      - serializedVersion: 2
        time: 0.5217391
        value: {x: -1.650009, y: -1.989995, z: 0}
        inSlope: {x: -0.00074887276, y: -0.0016838475, z: 0}
        outSlope: {x: -0.00074887276, y: -0.0016838475, z: 0}
        tangentMode: 0
      - serializedVersion: 2
        time: 0.7826087
        value: {x: -0.4639833, y: -0.1451994, z: 0}
        inSlope: {x: 5.385866, y: -0.000004985364, z: 0}
        outSlope: {x: 5.385866, y: -0.000004985364, z: 0}
        tangentMode: 0
      - serializedVersion: 2
        time: 1.0434783
        value: {x: 1.1600082, y: -0.82000065, z: 0}
        inSlope: {x: 0.0050657927, y: -0.021339132, z: 0}
        outSlope: {x: 0.0050657927, y: -0.021339132, z: 0}
        tangentMode: 0
      m_PreInfinity: 2
      m_PostInfinity: 2
      m_RotationOrder: 4
    path: TRONC_CTRL_GRP/TRONC_CTRL/D_MAIN_CTRL_GRP/D_MAIN_CTRL
  - curve:
      serializedVersion: 2
      m_Curve:
      - serializedVersion: 2
        time: 0
        value: {x: -1.6500087, y: -1.9899954, z: 0}
        inSlope: {x: -0.019993532, y: 0.00000040983602, z: 0}
        outSlope: {x: -0.019993532, y: 0.00000040983602, z: 0}
        tangentMode: 0
      - serializedVersion: 2
        time: 0.26086956
        value: {x: -0.5944793, y: -0.1581362, z: 0}
        inSlope: {x: 11.158435, y: -0.0072562783, z: 0}
        outSlope: {x: 11.158435, y: -0.0072562783, z: 0}
        tangentMode: 0
      - serializedVersion: 2
        time: 0.5217391
        value: {x: 1.160008, y: -0.8200006, z: 0}
        inSlope: {x: -0.014071703, y: -0.0037565231, z: 0}
        outSlope: {x: -0.014071703, y: -0.0037565231, z: 0}
        tangentMode: 0
      - serializedVersion: 2
        time: 0.7826087
        value: {x: -0.60182106, y: -0.16009611, z: 0}
        inSlope: {x: -8.67443, y: -0.0000028411512, z: 0}
        outSlope: {x: -8.67443, y: -0.0000028411512, z: 0}
        tangentMode: 0
      - serializedVersion: 2
        time: 1.0434783
        value: {x: -1.6500087, y: -1.9899954, z: 0}
        inSlope: {x: 0.0000010077146, y: -0.010424427, z: 0}
        outSlope: {x: 0.0000010077146, y: -0.010424427, z: 0}
        tangentMode: 0
      m_PreInfinity: 2
      m_PostInfinity: 2
      m_RotationOrder: 4
    path: TRONC_CTRL_GRP/TRONC_CTRL/G_MAIN_CTRL_GRP/G_MAIN_CTRL
  m_ScaleCurves: []
  m_FloatCurves: []
  m_PPtrCurves: []
  m_SampleRate: 23
  m_WrapMode: 0
  m_Bounds:
    m_Center: {x: 0, y: 0, z: 0}
    m_Extent: {x: 0, y: 0, z: 0}
  m_ClipBindingConstant:
    genericBindings:
    - serializedVersion: 2
      path: 3540085516
      attribute: 1
      script: {fileID: 0}
      typeID: 4
      customType: 0
      isPPtrCurve: 0
    - serializedVersion: 2
      path: 2338927382
      attribute: 1
      script: {fileID: 0}
      typeID: 4
      customType: 0
      isPPtrCurve: 0
    - serializedVersion: 2
      path: 2703194324
      attribute: 1
      script: {fileID: 0}
      typeID: 4
      customType: 0
      isPPtrCurve: 0
    - serializedVersion: 2
      path: 216636208
      attribute: 1
      script: {fileID: 0}
      typeID: 4
      customType: 0
      isPPtrCurve: 0
    - serializedVersion: 2
      path: 648007922
      attribute: 1
      script: {fileID: 0}
      typeID: 4
      customType: 0
      isPPtrCurve: 0
    - serializedVersion: 2
      path: 2338927382
      attribute: 4
      script: {fileID: 0}
      typeID: 4
      customType: 14
      isPPtrCurve: 0
    - serializedVersion: 2
      path: 2703194324
      attribute: 4
      script: {fileID: 0}
      typeID: 4
      customType: 14
      isPPtrCurve: 0
    - serializedVersion: 2
      path: 216636208
      attribute: 4
      script: {fileID: 0}
      typeID: 4
      customType: 14
      isPPtrCurve: 0
    - serializedVersion: 2
      path: 648007922
      attribute: 4
      script: {fileID: 0}
      typeID: 4
      customType: 14
      isPPtrCurve: 0
    - serializedVersion: 2
      path: 4121086709
      attribute: 4
      script: {fileID: 0}
      typeID: 4
      customType: 14
      isPPtrCurve: 0
    - serializedVersion: 2
      path: 3654559519
      attribute: 4
      script: {fileID: 0}
      typeID: 4
      customType: 14
      isPPtrCurve: 0
    - serializedVersion: 2
      path: 3540085516
      attribute: 4
      script: {fileID: 0}
      typeID: 4
      customType: 14
      isPPtrCurve: 0
    pptrCurveMapping: []
  m_AnimationClipSettings:
    serializedVersion: 2
    m_AdditiveReferencePoseClip: {fileID: 0}
    m_AdditiveReferencePoseTime: 0
    m_StartTime: 0
    m_StopTime: 1.0434783
    m_OrientationOffsetY: 0
    m_Level: 0
    m_CycleOffset: 0
    m_HasAdditiveReferencePose: 0
    m_LoopTime: 1
    m_LoopBlend: 0
    m_LoopBlendOrientation: 0
    m_LoopBlendPositionY: 0
    m_LoopBlendPositionXZ: 0
    m_KeepOriginalOrientation: 0
    m_KeepOriginalPositionY: 1
    m_KeepOriginalPositionXZ: 0
    m_HeightFromFeet: 0
    m_Mirror: 0
  m_EditorCurves:
  - curve:
      serializedVersion: 2
      m_Curve:
      - serializedVersion: 2
        time: 0
        value: -0.11
        inSlope: -0.5025501
        outSlope: -0.5025501
        tangentMode: 0
      - serializedVersion: 2
        time: 0.08695652
        value: -0.13
        inSlope: 0.07666669
        outSlope: 0.07666669
        tangentMode: 34
      - serializedVersion: 2
        time: 0.3478261
        value: -0.03
        inSlope: -0.000000014901161
        outSlope: -0.000000014901161
        tangentMode: 34
      - serializedVersion: 2
        time: 0.6086956
        value: -0.13
        inSlope: -0.000000014901161
        outSlope: -0.000000014901161
        tangentMode: 34
      - serializedVersion: 2
        time: 0.8695652
        value: -0.03
        inSlope: -0.03833331
        outSlope: -0.03833331
        tangentMode: 34
      - serializedVersion: 2
        time: 1.0434783
        value: -0.11
        inSlope: -0.55388707
        outSlope: -0.55388707
        tangentMode: 0
      m_PreInfinity: 2
      m_PostInfinity: 2
      m_RotationOrder: 4
    attribute: m_LocalPosition.x
    path: TRONC_CTRL_GRP/TRONC_CTRL
    classID: 4
    script: {fileID: 0}
  - curve:
      serializedVersion: 2
      m_Curve:
      - serializedVersion: 2
        time: 0
        value: -0.36
        inSlope: -4.309011
        outSlope: -4.309011
        tangentMode: 0
      - serializedVersion: 2
        time: 0.08695652
        value: -0.53
        inSlope: -0.24916643
        outSlope: -0.24916643
        tangentMode: 34
      - serializedVersion: 2
        time: 0.3478261
        value: -0.15
        inSlope: -0.000000059604645
        outSlope: -0.000000059604645
        tangentMode: 34
      - serializedVersion: 2
        time: 0.6086956
        value: -0.53
        inSlope: -0.000000059604645
        outSlope: -0.000000059604645
        tangentMode: 34
      - serializedVersion: 2
        time: 0.8695652
        value: -0.15
        inSlope: 0.124583304
        outSlope: 0.124583304
        tangentMode: 34
      - serializedVersion: 2
        time: 1.0434783
        value: -0.36
        inSlope: -3.164909
        outSlope: -3.164909
        tangentMode: 0
      m_PreInfinity: 2
      m_PostInfinity: 2
      m_RotationOrder: 4
    attribute: m_LocalPosition.y
    path: TRONC_CTRL_GRP/TRONC_CTRL
    classID: 4
    script: {fileID: 0}
  - curve:
      serializedVersion: 2
      m_Curve:
      - serializedVersion: 2
        time: 0
        value: -1.62
        inSlope: 0.005234418
        outSlope: 0.005234418
        tangentMode: 0
      - serializedVersion: 2
        time: 0.5217391
        value: 0.8800167
        inSlope: 0
        outSlope: 0
        tangentMode: 34
      - serializedVersion: 2
        time: 1.0434783
        value: -1.62
        inSlope: 0.011567941
        outSlope: 0.011567941
        tangentMode: 0
      m_PreInfinity: 2
      m_PostInfinity: 2
      m_RotationOrder: 4
    attribute: m_LocalPosition.x
    path: TRONC_CTRL_GRP/TRONC_CTRL/D_PIED_CTRL_GRP/D_PIED_CTRL
    classID: 4
    script: {fileID: 0}
  - curve:
      serializedVersion: 2
      m_Curve:
      - serializedVersion: 2
        time: 0
        value: -0.83
        inSlope: 0.0000002527322
        outSlope: 0.0000002527322
        tangentMode: 0
      - serializedVersion: 2
        time: 0.26086956
        value: -0.1865626
        inSlope: -0.0000007570101
        outSlope: -0.0000007570101
        tangentMode: 0
      - serializedVersion: 2
        time: 0.5217391
        value: -0.7900052
        inSlope: -0.99084723
        outSlope: -0.99084723
        tangentMode: 34
      - serializedVersion: 2
        time: 0.7826087
        value: -0.7035264
        inSlope: -0.076656654
        outSlope: -0.076656654
        tangentMode: 34
      - serializedVersion: 2
        time: 1.0434783
        value: -0.83
        inSlope: -0.48481548
        outSlope: -0.48481548
        tangentMode: 34
      m_PreInfinity: 2
      m_PostInfinity: 2
      m_RotationOrder: 4
    attribute: m_LocalPosition.y
    path: TRONC_CTRL_GRP/TRONC_CTRL/D_PIED_CTRL_GRP/D_PIED_CTRL
    classID: 4
    script: {fileID: 0}
  - curve:
      serializedVersion: 2
      m_Curve:
      - serializedVersion: 2
        time: 0
        value: 48.39103
        inSlope: 0
        outSlope: 0
        tangentMode: 0
      - serializedVersion: 2
        time: 0.26086956
        value: 18.535374
        inSlope: -344.12726
        outSlope: -344.12726
        tangentMode: 34
      - serializedVersion: 2
        time: 0.5217391
        value: -131.15364
        inSlope: -114.84029
        outSlope: -114.84029
        tangentMode: 34
      - serializedVersion: 2
        time: 1.0434783
        value: 48.39103
        inSlope: -0
        outSlope: -0
        tangentMode: 0
      m_PreInfinity: 2
      m_PostInfinity: 2
      m_RotationOrder: 4
    attribute: localEulerAnglesRaw.z
    path: TRONC_CTRL_GRP/TRONC_CTRL/D_PIED_CTRL_GRP/D_PIED_CTRL
    classID: 4
    script: {fileID: 0}
  - curve:
      serializedVersion: 2
      m_Curve:
      - serializedVersion: 2
        time: 0
        value: 0.88001674
        inSlope: 0.0000032786882
        outSlope: 0.0000032786882
        tangentMode: 0
      - serializedVersion: 2
        time: 0.5217391
        value: -1.62
        inSlope: 0
        outSlope: 0
        tangentMode: 34
      - serializedVersion: 2
        time: 1.0434783
        value: 0.88001674
        inSlope: -0.0000027117849
        outSlope: -0.0000027117849
        tangentMode: 0
      m_PreInfinity: 2
      m_PostInfinity: 2
      m_RotationOrder: 4
    attribute: m_LocalPosition.x
    path: TRONC_CTRL_GRP/TRONC_CTRL/G_PIED_CTRL_GRP/G_PIED_CTRL
    classID: 4
    script: {fileID: 0}
  - curve:
      serializedVersion: 2
      m_Curve:
      - serializedVersion: 2
        time: 0
        value: -0.7900052
        inSlope: 0.33150217
        outSlope: 0.33150217
        tangentMode: 34
      - serializedVersion: 2
        time: 0.26086956
        value: -0.7035264
        inSlope: -0.076656654
        outSlope: -0.076656654
        tangentMode: 34
      - serializedVersion: 2
        time: 0.5217391
        value: -0.83
        inSlope: 0.9908473
        outSlope: 0.9908473
        tangentMode: 34
      - serializedVersion: 2
        time: 0.7826087
        value: -0.1865626
        inSlope: 0.0025829198
        outSlope: 0.0025829198
        tangentMode: 0
      - serializedVersion: 2
        time: 1.0434783
        value: -0.7900052
        inSlope: -2.3131967
        outSlope: -2.3131967
        tangentMode: 34
      m_PreInfinity: 2
      m_PostInfinity: 2
      m_RotationOrder: 4
    attribute: m_LocalPosition.y
    path: TRONC_CTRL_GRP/TRONC_CTRL/G_PIED_CTRL_GRP/G_PIED_CTRL
    classID: 4
    script: {fileID: 0}
  - curve:
      serializedVersion: 2
      m_Curve:
      - serializedVersion: 2
        time: 0
        value: -130.67056
        inSlope: 1.7978567
        outSlope: 1.7978567
        tangentMode: 0
      - serializedVersion: 2
        time: 0.5217391
        value: 48.689156
        inSlope: -0.2470756
        outSlope: -0.2470756
        tangentMode: 0
      - serializedVersion: 2
        time: 0.7826087
        value: 18.53537
        inSlope: -350.70377
        outSlope: -350.70377
        tangentMode: 0
      - serializedVersion: 2
        time: 1.0434783
        value: -130.67056
        inSlope: 2.3024158
        outSlope: 2.3024158
        tangentMode: 0
      m_PreInfinity: 2
      m_PostInfinity: 2
      m_RotationOrder: 4
    attribute: localEulerAnglesRaw.z
    path: TRONC_CTRL_GRP/TRONC_CTRL/G_PIED_CTRL_GRP/G_PIED_CTRL
    classID: 4
    script: {fileID: 0}
  - curve:
      serializedVersion: 2
      m_Curve:
      - serializedVersion: 2
        time: 0
        value: 1.1600082
        inSlope: 0.00000071719643
        outSlope: 0.00000071719643
        tangentMode: 0
      - serializedVersion: 2
        time: 0.26086956
        value: -0.46359265
        inSlope: -6.917966
        outSlope: -6.917966
        tangentMode: 0
      - serializedVersion: 2
        time: 0.5217391
        value: -1.650009
        inSlope: -0.00074887276
        outSlope: -0.00074887276
        tangentMode: 34
      - serializedVersion: 2
        time: 0.7826087
        value: -0.4639833
        inSlope: 5.385866
        outSlope: 5.385866
        tangentMode: 34
      - serializedVersion: 2
        time: 1.0434783
        value: 1.1600082
        inSlope: 0.0050657927
        outSlope: 0.0050657927
        tangentMode: 0
      m_PreInfinity: 2
      m_PostInfinity: 2
      m_RotationOrder: 4
    attribute: m_LocalPosition.x
    path: TRONC_CTRL_GRP/TRONC_CTRL/D_MAIN_CTRL_GRP/D_MAIN_CTRL
    classID: 4
    script: {fileID: 0}
  - curve:
      serializedVersion: 2
      m_Curve:
      - serializedVersion: 2
        time: 0
        value: -0.82000065
        inSlope: -0.016732665
        outSlope: -0.016732665
        tangentMode: 0
      - serializedVersion: 2
        time: 0.26086956
        value: -0.14587164
        inSlope: 0.00027912995
        outSlope: 0.00027912995
        tangentMode: 0
      - serializedVersion: 2
        time: 0.5217391
        value: -1.989995
        inSlope: -0.0016838475
        outSlope: -0.0016838475
        tangentMode: 0
      - serializedVersion: 2
        time: 0.7826087
        value: -0.1451994
        inSlope: -0.000004985364
        outSlope: -0.000004985364
        tangentMode: 0
      - serializedVersion: 2
        time: 1.0434783
        value: -0.82000065
        inSlope: -0.021339132
        outSlope: -0.021339132
        tangentMode: 0
      m_PreInfinity: 2
      m_PostInfinity: 2
      m_RotationOrder: 4
    attribute: m_LocalPosition.y
    path: TRONC_CTRL_GRP/TRONC_CTRL/D_MAIN_CTRL_GRP/D_MAIN_CTRL
    classID: 4
    script: {fileID: 0}
  - curve:
      serializedVersion: 2
      m_Curve:
      - serializedVersion: 2
        time: 0
        value: -47.59197
        inSlope: -0.000016869937
        outSlope: -0.000016869937
        tangentMode: 0
      - serializedVersion: 2
        time: 0.5217391
        value: 161.4481
        inSlope: 341.7298
        outSlope: 341.7298
        tangentMode: 0
      - serializedVersion: 2
        time: 1.0434783
        value: -47.59197
        inSlope: 0.5032507
        outSlope: 0.5032507
        tangentMode: 0
      m_PreInfinity: 2
      m_PostInfinity: 2
      m_RotationOrder: 4
    attribute: localEulerAnglesRaw.z
    path: TRONC_CTRL_GRP/TRONC_CTRL/D_MAIN_CTRL_GRP/D_MAIN_CTRL
    classID: 4
    script: {fileID: 0}
  - curve:
      serializedVersion: 2
      m_Curve:
      - serializedVersion: 2
        time: 0
        value: -1.6500087
        inSlope: -0.019993532
        outSlope: -0.019993532
        tangentMode: 0
      - serializedVersion: 2
        time: 0.26086956
        value: -0.5944793
        inSlope: 11.158435
        outSlope: 11.158435
        tangentMode: 0
      - serializedVersion: 2
        time: 0.5217391
        value: 1.160008
        inSlope: -0.014071703
        outSlope: -0.014071703
        tangentMode: 34
      - serializedVersion: 2
        time: 0.7826087
        value: -0.60182106
        inSlope: -8.67443
        outSlope: -8.67443
        tangentMode: 0
      - serializedVersion: 2
        time: 1.0434783
        value: -1.6500087
        inSlope: 0.0000010077146
        outSlope: 0.0000010077146
        tangentMode: 0
      m_PreInfinity: 2
      m_PostInfinity: 2
      m_RotationOrder: 4
    attribute: m_LocalPosition.x
    path: TRONC_CTRL_GRP/TRONC_CTRL/G_MAIN_CTRL_GRP/G_MAIN_CTRL
    classID: 4
    script: {fileID: 0}
  - curve:
      serializedVersion: 2
      m_Curve:
      - serializedVersion: 2
        time: 0
        value: -1.9899954
        inSlope: 0.00000040983602
        outSlope: 0.00000040983602
        tangentMode: 0
      - serializedVersion: 2
        time: 0.26086956
        value: -0.1581362
        inSlope: -0.0072562783
        outSlope: -0.0072562783
        tangentMode: 0
      - serializedVersion: 2
        time: 0.5217391
        value: -0.8200006
        inSlope: -0.0037565231
        outSlope: -0.0037565231
        tangentMode: 34
      - serializedVersion: 2
        time: 0.7826087
        value: -0.16009611
        inSlope: -0.0000028411512
        outSlope: -0.0000028411512
        tangentMode: 0
      - serializedVersion: 2
        time: 1.0434783
        value: -1.9899954
        inSlope: -0.010424427
        outSlope: -0.010424427
        tangentMode: 0
      m_PreInfinity: 2
      m_PostInfinity: 2
      m_RotationOrder: 4
    attribute: m_LocalPosition.y
    path: TRONC_CTRL_GRP/TRONC_CTRL/G_MAIN_CTRL_GRP/G_MAIN_CTRL
    classID: 4
    script: {fileID: 0}
  - curve:
      serializedVersion: 2
      m_Curve:
      - serializedVersion: 2
        time: 0
        value: 161.17249
        inSlope: 399.5992
        outSlope: 399.5992
        tangentMode: 0
      - serializedVersion: 2
        time: 0.5217391
        value: -47.59197
        inSlope: -0.5368571
        outSlope: -0.5368571
        tangentMode: 0
      - serializedVersion: 2
        time: 1.0434783
        value: 161.17249
        inSlope: 443.89883
        outSlope: 443.89883
        tangentMode: 0
      m_PreInfinity: 2
      m_PostInfinity: 2
      m_RotationOrder: 4
    attribute: localEulerAnglesRaw.z
    path: TRONC_CTRL_GRP/TRONC_CTRL/G_MAIN_CTRL_GRP/G_MAIN_CTRL
    classID: 4
    script: {fileID: 0}
  - curve:
      serializedVersion: 2
      m_Curve:
      - serializedVersion: 2
        time: 0
        value: 17.57674
        inSlope: -0.055196825
        outSlope: -0.055196825
        tangentMode: 0
      - serializedVersion: 2
        time: 0.26086956
        value: 7.9683003
        inSlope: 0
        outSlope: 0
        tangentMode: 34
      - serializedVersion: 2
        time: 0.5217391
        value: 17.57674
        inSlope: -0.041881524
        outSlope: -0.041881524
        tangentMode: 0
      - serializedVersion: 2
        time: 0.7826087
        value: 7.9683003
        inSlope: 0
        outSlope: 0
        tangentMode: 34
      - serializedVersion: 2
        time: 1.0434783
        value: 17.57674
        inSlope: -0.34606174
        outSlope: -0.34606174
        tangentMode: 0
      m_PreInfinity: 2
      m_PostInfinity: 2
      m_RotationOrder: 4
    attribute: localEulerAnglesRaw.z
    path: TRONC_CTRL_GRP/TRONC_CTRL/COU_CTRL_GRP/COU_CTRL
    classID: 4
    script: {fileID: 0}
  - curve:
      serializedVersion: 2
      m_Curve:
      - serializedVersion: 2
        time: 0
        value: 7.604545
        inSlope: -0.2563496
        outSlope: -0.2563496
        tangentMode: 0
      - serializedVersion: 2
        time: 0.26086956
        value: 11.881088
        inSlope: 0
        outSlope: 0
        tangentMode: 34
      - serializedVersion: 2
        time: 0.5217391
        value: 7.604545
        inSlope: -0.0000038146973
        outSlope: -0.0000038146973
        tangentMode: 0
      - serializedVersion: 2
        time: 0.7826087
        value: 11.881088
        inSlope: 0
        outSlope: 0
        tangentMode: 34
      - serializedVersion: 2
        time: 1.0434783
        value: 7.604545
        inSlope: 0.24060166
        outSlope: 0.24060166
        tangentMode: 0
      m_PreInfinity: 2
      m_PostInfinity: 2
      m_RotationOrder: 4
    attribute: localEulerAnglesRaw.z
    path: TRONC_CTRL_GRP/TRONC_CTRL/TETE_CTRL_GRP/TETE_CTRL
    classID: 4
    script: {fileID: 0}
  - curve:
      serializedVersion: 2
      m_Curve:
      - serializedVersion: 2
        time: 0
        value: -22
        inSlope: -0.00036230322
        outSlope: -0.00036230322
        tangentMode: 0
      - serializedVersion: 2
        time: 0.26086956
        value: -14
        inSlope: 0
        outSlope: 0
        tangentMode: 0
      - serializedVersion: 2
        time: 0.5217391
        value: -22
        inSlope: 0
        outSlope: 0
        tangentMode: 34
      - serializedVersion: 2
        time: 0.7826087
        value: -14
        inSlope: 0
        outSlope: 0
        tangentMode: 0
      - serializedVersion: 2
        time: 1.0434783
        value: -22
        inSlope: -0.0000059250942
        outSlope: -0.0000059250942
        tangentMode: 0
      m_PreInfinity: 2
      m_PostInfinity: 2
      m_RotationOrder: 4
    attribute: localEulerAnglesRaw.z
    path: TRONC_CTRL_GRP/TRONC_CTRL
    classID: 4
    script: {fileID: 0}
  m_EulerEditorCurves: []
  m_HasGenericRootTransform: 0
  m_HasMotionFloatCurves: 0
  m_GenerateMotionCurves: 0
  m_Events: []
