{
	"name":"Group1_Id5",
	"filename":"Group1_Id5_Save.json",
	"traces":{
		"runner":[
			{
				"d01":2,
				"d02":3,
				"d03":1,
				"success":0,
				"surfaceDiff":0,
				"time":1262540544
			},
			{
				"d01":2,
				"d02":3,
				"d03":1,
				"success":1,
				"surfaceDiff":0,
				"time":1262540544
			},
			{
				"d01":2,
				"d02":3,
				"d03":1,
				"success":1,
				"surfaceDiff":231,
				"time":1262540544
			},
			{
				"d01":2,
				"d02":3,
				"d03":1,
				"success":1,
				"surfaceDiff":235,
				"time":1262540544
			},
			{
				"d01":1,
				"d02":0,
				"d03":3,
				"success":1,
				"surfaceDiff":341,
				"time":1262540672
			},
			{
				"d01":1,
				"d02":0,
				"d03":3,
				"success":1,
				"surfaceDiff":335,
				"time":1262540672
			},
			{
				"d01":1,
				"d02":0,
				"d03":3,
				"success":1,
				"surfaceDiff":335,
				"time":1262540672
			},
			{
				"d01":1,
				"d02":0,
				"d03":3,
				"success":1,
				"surfaceDiff":335,
				"time":1262540672
			},
			{
				"d01":0,
				"d02":2,
				"d03":2,
				"success":1,
				"surfaceDiff":335,
				"time":1262540672
			},
			{
				"d01":0,
				"d02":2,
				"d03":2,
				"success":1,
				"surfaceDiff":335,
				"time":1262540672
			},
			{
				"d01":0,
				"d02":2,
				"d03":2,
				"success":1,
				"surfaceDiff":335,
				"time":1262540672
			},
			{
				"d01":0,
				"d02":2,
				"d03":2,
				"success":1,
				"surfaceDiff":335,
				"time":1262540672
			},
			{
				"d01":1,
				"d02":0,
				"d03":5,
				"success":1,
				"surfaceDiff":335,
				"time":1262540672
			},
			{
				"d01":1,
				"d02":0,
				"d03":5,
				"success":1,
				"surfaceDiff":335,
				"time":1262540672
			},
			{
				"d01":1,
				"d02":0,
				"d03":5,
				"success":1,
				"surfaceDiff":335,
				"time":1262540672
			},
			{
				"d01":1,
				"d02":0,
				"d03":5,
				"success":1,
				"surfaceDiff":435,
				"time":1262540672
			},
			{
				"d01":1,
				"d02":0,
				"d03":5,
				"success":1,
				"surfaceDiff":435,
				"time":1262540672
			},
			{
				"d01":1,
				"d02":0,
				"d03":5,
				"success":1,
				"surfaceDiff":435,
				"time":1262540672
			},
			{
				"d01":1,
				"d02":0,
				"d03":5,
				"success":1,
				"surfaceDiff":535,
				"time":1262540672
			},
			{
				"d01":2,
				"d02":0,
				"d03":4,
				"success":1,
				"surfaceDiff":535,
				"time":1262540672
			},
			{
				"d01":2,
				"d02":0,
				"d03":4,
				"success":1,
				"surfaceDiff":535,
				"time":1262540672
			},
			{
				"d01":2,
				"d02":0,
				"d03":4,
				"success":0,
				"surfaceDiff":535,
				"time":1262540672
			},
			{
				"d01":2,
				"d02":0,
				"d03":4,
				"success":0,
				"surfaceDiff":245,
				"time":1262540672
			},
			{
				"d01":2,
				"d02":0,
				"d03":4,
				"success":0,
				"surfaceDiff":245,
				"time":1262540672
			},
			{
				"d01":2,
				"d02":0,
				"d03":4,
				"success":1,
				"surfaceDiff":245,
				"time":1262540672
			},
			{
				"d01":2,
				"d02":0,
				"d03":4,
				"success":0,
				"surfaceDiff":245,
				"time":1262540672
			},
			{
				"d01":2,
				"d02":0,
				"d03":4,
				"success":1,
				"surfaceDiff":245,
				"time":1262540672
			},
			{
				"d01":2,
				"d02":0,
				"d03":4,
				"success":0,
				"surfaceDiff":245,
				"time":1262540672
			},
			{
				"d01":2,
				"d02":0,
				"d03":4,
				"success":0,
				"surfaceDiff":245,
				"time":1262540672
			},
			{
				"d01":2,
				"d02":0,
				"d03":4,
				"success":1,
				"surfaceDiff":245,
				"time":1262540672
			},
			{
				"d01":2,
				"d02":2,
				"d03":0,
				"success":1,
				"surfaceDiff":245,
				"time":1262540750
			},
			{
				"d01":2,
				"d02":2,
				"d03":0,
				"success":0,
				"surfaceDiff":245,
				"time":1262540752
			},
			{
				"d01":2,
				"d02":2,
				"d03":0,
				"success":1,
				"surfaceDiff":245,
				"time":1262540760
			},
			{
				"d01":2,
				"d02":2,
				"d03":0,
				"success":1,
				"surfaceDiff":245,
				"time":1262540765
			},
			{
				"d01":2,
				"d02":0,
				"d03":0,
				"success":0,
				"surfaceDiff":245,
				"time":1262540782
			},
			{
				"d01":2,
				"d02":0,
				"d03":0,
				"success":0,
				"surfaceDiff":245,
				"time":1262540785
			},
			{
				"d01":2,
				"d02":0,
				"d03":0,
				"success":0,
				"surfaceDiff":155,
				"time":1262540795
			}
		]
	},
	"elapsedTimes":{
		"runner":215.054916381836,
		"match_maker":0,
		"chase":0,
		"tower_defense":0
	}
}