^C:\Users\Devellopeur\Documents\Projets\Divers_repo\parseval\parseval\parseval.vcxproj
C:\Users\Devellopeur\Documents\Projets\Divers_repo\parseval\x64\Release\parseval.lib
C:\Users\Devellopeur\Documents\Projets\Divers_repo\parseval\x64\Release\parseval.exp
C:\Users\Devellopeur\Documents\Projets\Divers_repo\parseval\x64\Release\parseval.ipdb
C:\Users\Devellopeur\Documents\Projets\Divers_repo\parseval\x64\Release\parseval.iobj
^C:\Users\Devellopeur\Documents\Projets\Divers_repo\parseval\parseval\parseval.vcxproj
C:\Users\Devellopeur\Documents\Projets\Divers_repo\parseval\x64\Release\parseval.lib
C:\Users\Devellopeur\Documents\Projets\Divers_repo\parseval\x64\Release\parseval.exp
C:\Users\Devellopeur\Documents\Projets\Divers_repo\parseval\x64\Release\parseval.ipdb
C:\Users\Devellopeur\Documents\Projets\Divers_repo\parseval\x64\Release\parseval.iobj
^C:\Users\Devellopeur\Documents\Projets\Divers_repo\parseval\parseval\parseval.vcxproj
C:\Users\Devellopeur\Documents\Projets\Divers_repo\parseval\x64\Release\parseval.lib
C:\Users\Devellopeur\Documents\Projets\Divers_repo\parseval\x64\Release\parseval.exp
C:\Users\Devellopeur\Documents\Projets\Divers_repo\parseval\x64\Release\parseval.ipdb
C:\Users\Devellopeur\Documents\Projets\Divers_repo\parseval\x64\Release\parseval.iobj
^C:\Users\Devellopeur\Documents\Projets\Divers_repo\parseval\parseval\parseval.vcxproj
C:\Users\Devellopeur\Documents\Projets\Divers_repo\parseval\x64\Release\parseval.lib
C:\Users\Devellopeur\Documents\Projets\Divers_repo\parseval\x64\Release\parseval.exp
C:\Users\Devellopeur\Documents\Projets\Divers_repo\parseval\x64\Release\parseval.ipdb
C:\Users\Devellopeur\Documents\Projets\Divers_repo\parseval\x64\Release\parseval.iobj
^C:\Users\Devellopeur\Documents\Projets\Divers_repo\parseval\parseval\parseval.vcxproj
C:\Users\Devellopeur\Documents\Projets\Divers_repo\parseval\x64\Release\parseval.lib
C:\Users\Devellopeur\Documents\Projets\Divers_repo\parseval\x64\Release\parseval.exp
C:\Users\Devellopeur\Documents\Projets\Divers_repo\parseval\x64\Release\parseval.ipdb
C:\Users\Devellopeur\Documents\Projets\Divers_repo\parseval\x64\Release\parseval.iobj
^C:\Users\Devellopeur\Documents\Projets\Divers_repo\parseval\parseval\parseval.vcxproj
C:\Users\Devellopeur\Documents\Projets\Divers_repo\parseval\x64\Release\parseval.lib
C:\Users\Devellopeur\Documents\Projets\Divers_repo\parseval\x64\Release\parseval.exp
C:\Users\Devellopeur\Documents\Projets\Divers_repo\parseval\x64\Release\parseval.ipdb
C:\Users\Devellopeur\Documents\Projets\Divers_repo\parseval\x64\Release\parseval.iobj
^C:\Users\Devellopeur\Documents\Projets\Divers_repo\parseval\parseval\parseval.vcxproj
C:\Users\Devellopeur\Documents\Projets\Divers_repo\parseval\x64\Release\parseval.lib
C:\Users\Devellopeur\Documents\Projets\Divers_repo\parseval\x64\Release\parseval.exp
C:\Users\Devellopeur\Documents\Projets\Divers_repo\parseval\x64\Release\parseval.ipdb
C:\Users\Devellopeur\Documents\Projets\Divers_repo\parseval\x64\Release\parseval.iobj
^C:\Users\Devellopeur\Documents\Projets\Divers_repo\parseval\parseval\parseval.vcxproj
C:\Users\Devellopeur\Documents\Projets\Divers_repo\parseval\x64\Release\parseval.lib
C:\Users\Devellopeur\Documents\Projets\Divers_repo\parseval\x64\Release\parseval.exp
C:\Users\Devellopeur\Documents\Projets\Divers_repo\parseval\x64\Release\parseval.ipdb
C:\Users\Devellopeur\Documents\Projets\Divers_repo\parseval\x64\Release\parseval.iobj
^C:\Users\Devellopeur\Documents\Projets\Divers_repo\parseval\parseval\parseval.vcxproj
C:\Users\Devellopeur\Documents\Projets\Divers_repo\parseval\x64\Release\parseval.lib
C:\Users\Devellopeur\Documents\Projets\Divers_repo\parseval\x64\Release\parseval.exp
C:\Users\Devellopeur\Documents\Projets\Divers_repo\parseval\x64\Release\parseval.ipdb
C:\Users\Devellopeur\Documents\Projets\Divers_repo\parseval\x64\Release\parseval.iobj
^C:\Users\Devellopeur\Documents\Projets\Divers_repo\parseval\parseval\parseval.vcxproj
C:\Users\Devellopeur\Documents\Projets\Divers_repo\parseval\x64\Release\parseval.lib
C:\Users\Devellopeur\Documents\Projets\Divers_repo\parseval\x64\Release\parseval.exp
C:\Users\Devellopeur\Documents\Projets\Divers_repo\parseval\x64\Release\parseval.ipdb
C:\Users\Devellopeur\Documents\Projets\Divers_repo\parseval\x64\Release\parseval.iobj
^C:\Users\Devellopeur\Documents\Projets\Divers_repo\parseval\parseval\parseval.vcxproj
C:\Users\Devellopeur\Documents\Projets\Divers_repo\parseval\x64\Release\parseval.lib
C:\Users\Devellopeur\Documents\Projets\Divers_repo\parseval\x64\Release\parseval.exp
C:\Users\Devellopeur\Documents\Projets\Divers_repo\parseval\x64\Release\parseval.ipdb
C:\Users\Devellopeur\Documents\Projets\Divers_repo\parseval\x64\Release\parseval.iobj
^C:\Users\Devellopeur\Documents\Projets\Divers_repo\parseval\parseval\parseval.vcxproj
C:\Users\Devellopeur\Documents\Projets\Divers_repo\parseval\x64\Release\parseval.lib
C:\Users\Devellopeur\Documents\Projets\Divers_repo\parseval\x64\Release\parseval.exp
C:\Users\Devellopeur\Documents\Projets\Divers_repo\parseval\x64\Release\parseval.ipdb
C:\Users\Devellopeur\Documents\Projets\Divers_repo\parseval\x64\Release\parseval.iobj
^C:\Users\Devellopeur\Documents\Projets\Divers_repo\parseval\parseval\parseval.vcxproj
C:\Users\Devellopeur\Documents\Projets\Divers_repo\parseval\x64\Release\parseval.lib
C:\Users\Devellopeur\Documents\Projets\Divers_repo\parseval\x64\Release\parseval.exp
C:\Users\Devellopeur\Documents\Projets\Divers_repo\parseval\x64\Release\parseval.ipdb
C:\Users\Devellopeur\Documents\Projets\Divers_repo\parseval\x64\Release\parseval.iobj
^C:\Users\Devellopeur\Documents\Projets\Divers_repo\parseval\parseval\parseval.vcxproj
C:\Users\Devellopeur\Documents\Projets\Divers_repo\parseval\x64\Release\parseval.lib
C:\Users\Devellopeur\Documents\Projets\Divers_repo\parseval\x64\Release\parseval.exp
C:\Users\Devellopeur\Documents\Projets\Divers_repo\parseval\x64\Release\parseval.ipdb
C:\Users\Devellopeur\Documents\Projets\Divers_repo\parseval\x64\Release\parseval.iobj
^C:\Users\Devellopeur\Documents\Projets\Divers_repo\parseval\parseval\parseval.vcxproj
C:\Users\Devellopeur\Documents\Projets\Divers_repo\parseval\x64\Release\parseval.lib
C:\Users\Devellopeur\Documents\Projets\Divers_repo\parseval\x64\Release\parseval.exp
C:\Users\Devellopeur\Documents\Projets\Divers_repo\parseval\x64\Release\parseval.ipdb
C:\Users\Devellopeur\Documents\Projets\Divers_repo\parseval\x64\Release\parseval.iobj
^C:\Users\Devellopeur\Documents\Projets\Divers_repo\parseval\parseval\parseval.vcxproj
C:\Users\Devellopeur\Documents\Projets\Divers_repo\parseval\x64\Release\parseval.lib
C:\Users\Devellopeur\Documents\Projets\Divers_repo\parseval\x64\Release\parseval.exp
C:\Users\Devellopeur\Documents\Projets\Divers_repo\parseval\x64\Release\parseval.ipdb
C:\Users\Devellopeur\Documents\Projets\Divers_repo\parseval\x64\Release\parseval.iobj
^C:\Users\Devellopeur\Documents\Projets\Divers_repo\parseval\parseval\parseval.vcxproj
C:\Users\Devellopeur\Documents\Projets\Divers_repo\parseval\x64\Release\parseval.lib
C:\Users\Devellopeur\Documents\Projets\Divers_repo\parseval\x64\Release\parseval.exp
C:\Users\Devellopeur\Documents\Projets\Divers_repo\parseval\x64\Release\parseval.ipdb
C:\Users\Devellopeur\Documents\Projets\Divers_repo\parseval\x64\Release\parseval.iobj
^C:\Users\Devellopeur\Documents\Projets\Divers_repo\parseval\parseval\parseval.vcxproj
C:\Users\Devellopeur\Documents\Projets\Divers_repo\parseval\x64\Release\parseval.lib
C:\Users\Devellopeur\Documents\Projets\Divers_repo\parseval\x64\Release\parseval.exp
C:\Users\Devellopeur\Documents\Projets\Divers_repo\parseval\x64\Release\parseval.ipdb
C:\Users\Devellopeur\Documents\Projets\Divers_repo\parseval\x64\Release\parseval.iobj
^C:\Users\Devellopeur\Documents\Projets\Divers_repo\parseval\parseval\parseval.vcxproj
C:\Users\Devellopeur\Documents\Projets\Divers_repo\parseval\x64\Release\parseval.lib
C:\Users\Devellopeur\Documents\Projets\Divers_repo\parseval\x64\Release\parseval.exp
C:\Users\Devellopeur\Documents\Projets\Divers_repo\parseval\x64\Release\parseval.ipdb
C:\Users\Devellopeur\Documents\Projets\Divers_repo\parseval\x64\Release\parseval.iobj
