^C:\USERS\DEVELLOPEUR\DOCUMENTS\PROJETS\DIVERS_REPO\PARSEVAL\PARSEVAL\PARSEVAL_SRCS\LPNC_COORD3.CPP
/c /Zi /nologo /W3 /WX- /diagnostics:classic /O2 /Oi /Oy- /GL /D WIN32 /D NDEBUG /D _WINDOWS /D _USRDLL /D PARSEVAL_EXPORTS /D _ARM_WINAPI_PARTITION_DESKTOP_SDK_AVAILABLE=1 /D _WINDLL /D _UNICODE /D UNICODE /Gm- /EHsc /MD /GS /Gy /fp:precise /Zc:wchar_t /Zc:forScope /Zc:inline /Fo"ARM\RELEASE\\" /Fd"ARM\RELEASE\VC141.PDB" /Gd /TP /analyze- C:\USERS\DEVELLOPEUR\DOCUMENTS\PROJETS\DIVERS_REPO\PARSEVAL\PARSEVAL\PARSEVAL_SRCS\LPNC_COORD3.CPP
^C:\USERS\DEVELLOPEUR\DOCUMENTS\PROJETS\DIVERS_REPO\PARSEVAL\PARSEVAL\PARSEVAL_SRCS\LPNC_MATRIX2.CPP
/c /Zi /nologo /W3 /WX- /diagnostics:classic /O2 /Oi /Oy- /GL /D WIN32 /D NDEBUG /D _WINDOWS /D _USRDLL /D PARSEVAL_EXPORTS /D _ARM_WINAPI_PARTITION_DESKTOP_SDK_AVAILABLE=1 /D _WINDLL /D _UNICODE /D UNICODE /Gm- /EHsc /MD /GS /Gy /fp:precise /Zc:wchar_t /Zc:forScope /Zc:inline /Fo"ARM\RELEASE\\" /Fd"ARM\RELEASE\VC141.PDB" /Gd /TP /analyze- C:\USERS\DEVELLOPEUR\DOCUMENTS\PROJETS\DIVERS_REPO\PARSEVAL\PARSEVAL\PARSEVAL_SRCS\LPNC_MATRIX2.CPP
^C:\USERS\DEVELLOPEUR\DOCUMENTS\PROJETS\DIVERS_REPO\PARSEVAL\PARSEVAL\PARSEVAL_SRCS\LPNC_MATRIX3.CPP
/c /Zi /nologo /W3 /WX- /diagnostics:classic /O2 /Oi /Oy- /GL /D WIN32 /D NDEBUG /D _WINDOWS /D _USRDLL /D PARSEVAL_EXPORTS /D _ARM_WINAPI_PARTITION_DESKTOP_SDK_AVAILABLE=1 /D _WINDLL /D _UNICODE /D UNICODE /Gm- /EHsc /MD /GS /Gy /fp:precise /Zc:wchar_t /Zc:forScope /Zc:inline /Fo"ARM\RELEASE\\" /Fd"ARM\RELEASE\VC141.PDB" /Gd /TP /analyze- C:\USERS\DEVELLOPEUR\DOCUMENTS\PROJETS\DIVERS_REPO\PARSEVAL\PARSEVAL\PARSEVAL_SRCS\LPNC_MATRIX3.CPP
^C:\USERS\DEVELLOPEUR\DOCUMENTS\PROJETS\DIVERS_REPO\PARSEVAL\PARSEVAL\PARSEVAL_SRCS\LPNC_CONTEXT3.CPP
/c /Zi /nologo /W3 /WX- /diagnostics:classic /O2 /Oi /Oy- /GL /D WIN32 /D NDEBUG /D _WINDOWS /D _USRDLL /D PARSEVAL_EXPORTS /D _ARM_WINAPI_PARTITION_DESKTOP_SDK_AVAILABLE=1 /D _WINDLL /D _UNICODE /D UNICODE /Gm- /EHsc /MD /GS /Gy /fp:precise /Zc:wchar_t /Zc:forScope /Zc:inline /Fo"ARM\RELEASE\\" /Fd"ARM\RELEASE\VC141.PDB" /Gd /TP /analyze- C:\USERS\DEVELLOPEUR\DOCUMENTS\PROJETS\DIVERS_REPO\PARSEVAL\PARSEVAL\PARSEVAL_SRCS\LPNC_CONTEXT3.CPP
^C:\USERS\DEVELLOPEUR\DOCUMENTS\PROJETS\DIVERS_REPO\PARSEVAL\PARSEVAL\MAIN.CPP
/c /Zi /nologo /W3 /WX- /diagnostics:classic /O2 /Oi /Oy- /GL /D WIN32 /D NDEBUG /D _WINDOWS /D _USRDLL /D PARSEVAL_EXPORTS /D _ARM_WINAPI_PARTITION_DESKTOP_SDK_AVAILABLE=1 /D _WINDLL /D _UNICODE /D UNICODE /Gm- /EHsc /MD /GS /Gy /fp:precise /Zc:wchar_t /Zc:forScope /Zc:inline /Fo"ARM\RELEASE\\" /Fd"ARM\RELEASE\VC141.PDB" /Gd /TP /analyze- C:\USERS\DEVELLOPEUR\DOCUMENTS\PROJETS\DIVERS_REPO\PARSEVAL\PARSEVAL\MAIN.CPP
^C:\USERS\DEVELLOPEUR\DOCUMENTS\PROJETS\DIVERS_REPO\PARSEVAL\PARSEVAL\PARSEVAL_SRCS\LPNC_PARSEVAL3_MESR.CPP
/c /Zi /nologo /W3 /WX- /diagnostics:classic /O2 /Oi /Oy- /GL /D WIN32 /D NDEBUG /D _WINDOWS /D _USRDLL /D PARSEVAL_EXPORTS /D _ARM_WINAPI_PARTITION_DESKTOP_SDK_AVAILABLE=1 /D _WINDLL /D _UNICODE /D UNICODE /Gm- /EHsc /MD /GS /Gy /fp:precise /Zc:wchar_t /Zc:forScope /Zc:inline /Fo"ARM\RELEASE\\" /Fd"ARM\RELEASE\VC141.PDB" /Gd /TP /analyze- C:\USERS\DEVELLOPEUR\DOCUMENTS\PROJETS\DIVERS_REPO\PARSEVAL\PARSEVAL\PARSEVAL_SRCS\LPNC_PARSEVAL3_MESR.CPP
^C:\USERS\DEVELLOPEUR\DOCUMENTS\PROJETS\DIVERS_REPO\PARSEVAL\PARSEVAL\PARSEVAL_SRCS\LPNC_STEP3.CPP
/c /Zi /nologo /W3 /WX- /diagnostics:classic /O2 /Oi /Oy- /GL /D WIN32 /D NDEBUG /D _WINDOWS /D _USRDLL /D PARSEVAL_EXPORTS /D _ARM_WINAPI_PARTITION_DESKTOP_SDK_AVAILABLE=1 /D _WINDLL /D _UNICODE /D UNICODE /Gm- /EHsc /MD /GS /Gy /fp:precise /Zc:wchar_t /Zc:forScope /Zc:inline /Fo"ARM\RELEASE\\" /Fd"ARM\RELEASE\VC141.PDB" /Gd /TP /analyze- C:\USERS\DEVELLOPEUR\DOCUMENTS\PROJETS\DIVERS_REPO\PARSEVAL\PARSEVAL\PARSEVAL_SRCS\LPNC_STEP3.CPP
