^C:\Users\Devellopeur\Documents\Projets\Divers_repo\parseval\parseval\parseval.vcxproj
C:\Users\Devellopeur\Documents\Projets\Divers_repo\parseval\ARM\Release\parseval.lib
C:\Users\Devellopeur\Documents\Projets\Divers_repo\parseval\ARM\Release\parseval.exp
^C:\Users\Devellopeur\Documents\Projets\Divers_repo\parseval\parseval\parseval.vcxproj
C:\Users\Devellopeur\Documents\Projets\Divers_repo\parseval\ARM\Release\parseval.lib
C:\Users\Devellopeur\Documents\Projets\Divers_repo\parseval\ARM\Release\parseval.exp
^C:\Users\Devellopeur\Documents\Projets\Divers_repo\parseval\parseval\parseval.vcxproj
C:\Users\Devellopeur\Documents\Projets\Divers_repo\parseval\ARM\Release\parseval.lib
C:\Users\Devellopeur\Documents\Projets\Divers_repo\parseval\ARM\Release\parseval.exp
