243,778801843318
247,210491803279	
219,860440150295	
152,877669902913	
399,880361173815	
210,865079365079	
367,850217076700	
366,188642297650	
344,145800316957	
201,625454545455	
206,811227637261	
190,485629335976	
161,189209164819	
84,4091293322063	
194,174757281553	
187,297091722595	
191,354685646501	
237,699598393574	
242,442816901408	
136,446657183499	
132,993519118600	
188,302793755136	
181,684062850730	
98,3150000000000	
204,389578163772	
254,844243792325	
119,833422603107	
156,695532266961	
217,894736842105	
178,788357178096	
128,067475360121	
238,527054108216	
191,526732673267	
178,319547235525	
218,167725540025	
157,266483516484
