%YAML 1.1
%TAG !u! tag:unity3d.com,2011:
--- !u!1001 &100100000
Prefab:
  m_ObjectHideFlags: 1
  serializedVersion: 2
  m_Modification:
    m_TransformParent: {fileID: 0}
    m_Modifications: []
    m_RemovedComponents: []
  m_ParentPrefab: {fileID: 0}
  m_RootGameObject: {fileID: 1095338888020428}
  m_IsPrefabParent: 1
--- !u!1 &1095338888020428
GameObject:
  m_ObjectHideFlags: 0
  m_PrefabParentObject: {fileID: 0}
  m_PrefabInternal: {fileID: 100100000}
  serializedVersion: 5
  m_Component:
  - component: {fileID: 4281868438527440}
  - component: {fileID: 114872763571418292}
  m_Layer: 0
  m_Name: TahomaBigger
  m_TagString: Untagged
  m_Icon: {fileID: 0}
  m_NavMeshLayer: 0
  m_StaticEditorFlags: 0
  m_IsActive: 1
--- !u!4 &4281868438527440
Transform:
  m_ObjectHideFlags: 1
  m_PrefabParentObject: {fileID: 0}
  m_PrefabInternal: {fileID: 100100000}
  m_GameObject: {fileID: 1095338888020428}
  m_LocalRotation: {x: 0, y: 0, z: 0, w: 1}
  m_LocalPosition: {x: 0, y: 0, z: 0}
  m_LocalScale: {x: 1, y: 1, z: 1}
  m_Children: []
  m_Father: {fileID: 0}
  m_RootOrder: 0
  m_LocalEulerAnglesHint: {x: 0, y: 0, z: 0}
--- !u!114 &114872763571418292
MonoBehaviour:
  m_ObjectHideFlags: 1
  m_PrefabParentObject: {fileID: 0}
  m_PrefabInternal: {fileID: 100100000}
  m_GameObject: {fileID: 1095338888020428}
  m_Enabled: 1
  m_EditorHideFlags: 0
  m_Script: {fileID: 11500000, guid: 0b4eb3a400afab046abb8471a9d746d6, type: 3}
  m_Name: 
  m_EditorClassIdentifier: 
  mMat: {fileID: 2100000, guid: 54da514b4e792a14ea35fba5fbf025b1, type: 2}
  mUVRect:
    serializedVersion: 2
    x: 0
    y: 0
    width: 1
    height: 1
  mFont:
    mSize: 128
    mBase: 0
    mWidth: 1024
    mHeight: 1024
    mSpriteName: 
    mSaved:
    - index: 32
      x: 0
      y: 0
      width: 0
      height: 0
      offsetX: 0
      offsetY: 0
      advance: 40
      channel: 15
      kerning: 
    - index: 33
      x: 84
      y: 821
      width: 15
      height: 93
      offsetX: 14
      offsetY: 9
      advance: 43
      channel: 15
      kerning: 
    - index: 34
      x: 154
      y: 8
      width: 38
      height: 36
      offsetX: 7
      offsetY: 5
      advance: 51
      channel: 15
      kerning: 290000000300000037000000030000004900000007000000
    - index: 35
      x: 0
      y: 124
      width: 77
      height: 93
      offsetX: 8
      offsetY: 9
      advance: 93
      channel: 15
      kerning: 
    - index: 36
      x: 0
      y: 2
      width: 57
      height: 121
      offsetX: 7
      offsetY: 3
      advance: 70
      channel: 15
      kerning: 29000000faffffff2d000000ffffffff2f000000fdffffff33000000fdffffff36000000ffffffff37000000f9ffffff38000000ffffffff39000000fdffffff3a000000fdffffff3c000000fbffffff
    - index: 37
      x: 101
      y: 927
      width: 112
      height: 97
      offsetX: 6
      offsetY: 7
      advance: 125
      channel: 15
      kerning: 
    - index: 38
      x: 0
      y: 696
      width: 86
      height: 97
      offsetX: 4
      offsetY: 7
      advance: 86
      channel: 15
      kerning: 25000000010000002f000000ffffffff37000000feffffff3b000000ffffffff3d000000ffffffff
    - index: 39
      x: 80
      y: 467
      width: 14
      height: 36
      offsetX: 7
      offsetY: 5
      advance: 27
      channel: 15
      kerning: 
    - index: 40
      x: 101
      y: 225
      width: 38
      height: 123
      offsetX: 7
      offsetY: 5
      advance: 49
      channel: 15
      kerning: 
    - index: 41
      x: 58
      y: 0
      width: 38
      height: 123
      offsetX: 4
      offsetY: 5
      advance: 49
      channel: 15
      kerning: 
    - index: 42
      x: 605
      y: 774
      width: 56
      height: 58
      offsetX: 7
      offsetY: 5
      advance: 70
      channel: 15
      kerning: 25000000010000002f000000ffffffff37000000feffffff3b000000ffffffff3d000000ffffffff
    - index: 43
      x: 736
      y: 852
      width: 74
      height: 74
      offsetX: 9
      offsetY: 24
      advance: 93
      channel: 15
      kerning: 
    - index: 44
      x: 219
      y: 7
      width: 27
      height: 41
      offsetX: 5
      offsetY: 84
      advance: 39
      channel: 15
      kerning: 
    - index: 45
      x: 796
      y: 940
      width: 35
      height: 11
      offsetX: 6
      offsetY: 56
      advance: 47
      channel: 15
      kerning: 27000000ffffffff29000000fcffffff2f0000000600000033000000fcffffff37000000fcffffff3c000000fcffffff
    - index: 46
      x: 84
      y: 802
      width: 15
      height: 18
      offsetX: 12
      offsetY: 84
      advance: 39
      channel: 15
      kerning: 
    - index: 47
      x: 101
      y: 563
      width: 47
      height: 117
      offsetX: -2
      offsetY: 5
      advance: 49
      channel: 15
      kerning: 
    - index: 48
      x: 154
      y: 143
      width: 60
      height: 97
      offsetX: 5
      offsetY: 7
      advance: 70
      channel: 15
      kerning: 
    - index: 49
      x: 101
      y: 32
      width: 46
      height: 93
      offsetX: 14
      offsetY: 9
      advance: 70
      channel: 15
      kerning: 
    - index: 50
      x: 219
      y: 243
      width: 58
      height: 95
      offsetX: 7
      offsetY: 7
      advance: 70
      channel: 15
      kerning: 25000000010000002e000000ffffffff2f000000ffffffff37000000fdffffff3b000000ffffffff3c000000ffffffff3d000000ffffffff
    - index: 51
      x: 219
      y: 339
      width: 57
      height: 97
      offsetX: 6
      offsetY: 7
      advance: 70
      channel: 15
      kerning: 
    - index: 52
      x: 426
      y: 833
      width: 64
      height: 93
      offsetX: 3
      offsetY: 9
      advance: 70
      channel: 15
      kerning: 25000000010000002f000000ffffffff
    - index: 53
      x: 219
      y: 49
      width: 55
      height: 95
      offsetX: 8
      offsetY: 9
      advance: 70
      channel: 15
      kerning: 
    - index: 54
      x: 154
      y: 45
      width: 60
      height: 97
      offsetX: 5
      offsetY: 7
      advance: 70
      channel: 15
      kerning: 37000000ffffffff
    - index: 55
      x: 676
      y: 833
      width: 59
      height: 93
      offsetX: 6
      offsetY: 9
      advance: 70
      channel: 15
      kerning: 24000000f9ffffff25000000fdffffff27000000fdffffff29000000020000002f000000f6ffffff32000000fdffffff35000000fdffffff3e0000000100000046000000faffffff48000000f8ffffff5e00000001000000
    - index: 56
      x: 154
      y: 540
      width: 61
      height: 97
      offsetX: 5
      offsetY: 7
      advance: 70
      channel: 15
      kerning: 24000000ffffffff
    - index: 57
      x: 154
      y: 241
      width: 60
      height: 97
      offsetX: 4
      offsetY: 7
      advance: 70
      channel: 15
      kerning: 24000000fdffffff2f000000faffffff
    - index: 58
      x: 82
      y: 527
      width: 15
      height: 70
      offsetX: 15
      offsetY: 32
      advance: 45
      channel: 15
      kerning: 24000000fdffffff27000000ffffffff2f000000faffffff
    - index: 59
      x: 992
      y: 833
      width: 27
      height: 93
      offsetX: 7
      offsetY: 32
      advance: 45
      channel: 15
      kerning: 27000000ffffffff32000000ffffffff
    - index: 60
      x: 279
      y: 761
      width: 67
      height: 71
      offsetX: 13
      offsetY: 26
      advance: 93
      channel: 15
      kerning: 24000000fbffffff27000000ffffffff2f000000f7ffffff32000000ffffffff330000000100000035000000ffffffff37000000fcffffff
    - index: 61
      x: 662
      y: 762
      width: 69
      height: 36
      offsetX: 12
      offsetY: 43
      advance: 93
      channel: 15
      kerning: 27000000ffffffff32000000ffffffff
    - index: 62
      x: 924
      y: 855
      width: 67
      height: 71
      offsetX: 13
      offsetY: 26
      advance: 93
      channel: 15
      kerning: 
    - index: 63
      x: 101
      y: 349
      width: 50
      height: 95
      offsetX: 7
      offsetY: 7
      advance: 61
      channel: 15
      kerning: 4900000006000000
    - index: 64
      x: 0
      y: 915
      width: 100
      height: 109
      offsetX: 8
      offsetY: 7
      advance: 116
      channel: 15
      kerning: 37000000010000004900000006000000
    - index: 65
      x: 0
      y: 410
      width: 79
      height: 93
      offsetX: -1
      offsetY: 9
      advance: 77
      channel: 15
      kerning: 
    - index: 66
      x: 491
      y: 833
      width: 63
      height: 93
      offsetX: 9
      offsetY: 9
      advance: 75
      channel: 15
      kerning: 
    - index: 67
      x: 326
      y: 927
      width: 71
      height: 97
      offsetX: 4
      offsetY: 7
      advance: 77
      channel: 15
      kerning: 
    - index: 68
      x: 548
      y: 931
      width: 74
      height: 93
      offsetX: 9
      offsetY: 9
      advance: 87
      channel: 15
      kerning: 250000000100000029000000faffffff2c000000ffffffff2e000000fdffffff33000000fdffffff35000000ffffffff37000000f2ffffff39000000faffffff3a000000fbffffff3b000000feffffff3c000000f8ffffff3d000000fdffffff49000000feffffff55000000feffffff59000000feffffff5a000000ffffffff5c000000feffffff
    - index: 69
      x: 616
      y: 833
      width: 59
      height: 93
      offsetX: 9
      offsetY: 9
      advance: 72
      channel: 15
      kerning: 
    - index: 70
      x: 811
      y: 833
      width: 56
      height: 93
      offsetX: 9
      offsetY: 9
      advance: 67
      channel: 15
      kerning: 2c000000feffffff37000000f3ffffff49000000ffffffff55000000ffffffff5b000000ffffffff5c000000ffffffff5d000000ffffffff
    - index: 71
      x: 0
      y: 312
      width: 75
      height: 97
      offsetX: 4
      offsetY: 7
      advance: 85
      channel: 15
      kerning: 2c000000ffffffff3c000000f9ffffff55000000ffffffff5b000000ffffffff5c000000ffffffff5d000000ffffffff
    - index: 72
      x: 223
      y: 833
      width: 68
      height: 93
      offsetX: 9
      offsetY: 9
      advance: 86
      channel: 15
      kerning: 250000000100000029000000fdffffff2c000000feffffff2e000000fcffffff33000000fdffffff35000000feffffff37000000f3ffffff39000000faffffff3a000000fbffffff3b000000fdffffff3c000000f8ffffff3d000000fdffffff49000000ffffffff4e000000ffffffff55000000ffffffff59000000ffffffff5b000000feffffff5c000000ffffffff5d000000ffffffff
    - index: 73
      x: 279
      y: 36
      width: 36
      height: 93
      offsetX: 6
      offsetY: 9
      advance: 48
      channel: 15
      kerning: 7700000001000000
    - index: 74
      x: 279
      y: 590
      width: 43
      height: 95
      offsetX: 1
      offsetY: 9
      advance: 53
      channel: 15
      kerning: 2c000000ffffffff37000000f3ffffff3c000000f8ffffff49000000ffffffff55000000ffffffff5b000000ffffffff5c000000ffffffff5d000000ffffffff
    - index: 75
      x: 154
      y: 833
      width: 68
      height: 93
      offsetX: 9
      offsetY: 9
      advance: 75
      channel: 15
      kerning: 2500000001000000
    - index: 76
      x: 868
      y: 833
      width: 55
      height: 93
      offsetX: 9
      offsetY: 9
      advance: 64
      channel: 15
      kerning: 2500000001000000
    - index: 77
      x: 0
      y: 504
      width: 81
      height: 93
      offsetX: 9
      offsetY: 9
      advance: 99
      channel: 15
      kerning: 25000000010000003e0000000300000049000000ffffffff4a000000010000005e00000003000000
    - index: 78
      x: 292
      y: 833
      width: 67
      height: 93
      offsetX: 9
      offsetY: 9
      advance: 85
      channel: 15
      kerning: 
    - index: 79
      x: 0
      y: 598
      width: 83
      height: 97
      offsetX: 4
      offsetY: 7
      advance: 91
      channel: 15
      kerning: 250000000100000076000000010000007700000001000000
    - index: 80
      x: 555
      y: 833
      width: 60
      height: 93
      offsetX: 9
      offsetY: 9
      advance: 71
      channel: 15
      kerning: 2c000000ffffffff3c000000faffffff49000000ffffffff
    - index: 81
      x: 0
      y: 794
      width: 83
      height: 120
      offsetX: 4
      offsetY: 7
      advance: 91
      channel: 15
      kerning: 2c000000ffffffff3c000000faffffff49000000ffffffff
    - index: 82
      x: 696
      y: 931
      width: 72
      height: 93
      offsetX: 9
      offsetY: 9
      advance: 79
      channel: 15
      kerning: 250000000100000029000000fdffffff2c000000feffffff2e000000fcffffff33000000fdffffff35000000feffffff37000000f3ffffff39000000faffffff3a000000fbffffff3b000000fdffffff3c000000f8ffffff3d000000fdffffff49000000ffffffff4e000000ffffffff55000000ffffffff59000000ffffffff5b000000feffffff5c000000ffffffff5d000000ffffffff
    - index: 83
      x: 154
      y: 638
      width: 63
      height: 97
      offsetX: 5
      offsetY: 7
      advance: 71
      channel: 15
      kerning: 2c000000ffffffff3c000000faffffff49000000ffffffff
    - index: 84
      x: 473
      y: 931
      width: 74
      height: 93
      offsetX: 0
      offsetY: 9
      advance: 75
      channel: 15
      kerning: 3c000000f8ffffff49000000ffffffff55000000ffffffff5c000000ffffffff5d000000ffffffff
    - index: 85
      x: 862
      y: 929
      width: 68
      height: 95
      offsetX: 8
      offsetY: 9
      advance: 84
      channel: 15
      kerning: 25000000010000002c000000ffffffff37000000f4ffffff3a000000feffffff3c000000faffffff49000000ffffffff
    - index: 86
      x: 0
      y: 218
      width: 78
      height: 93
      offsetX: -1
      offsetY: 9
      advance: 76
      channel: 15
      kerning: 2c000000ffffffff37000000f5ffffff3c000000faffffff49000000ffffffff
    - index: 87
      x: 214
      y: 931
      width: 111
      height: 93
      offsetX: 2
      offsetY: 9
      advance: 115
      channel: 15
      kerning: 24000000ffffffff
    - index: 88
      x: 623
      y: 931
      width: 72
      height: 93
      offsetX: 1
      offsetY: 9
      advance: 74
      channel: 15
      kerning: 24000000ffffffff25000000010000002e000000fdffffff35000000ffffffff37000000f4ffffff39000000fdffffff3a000000feffffff3b000000feffffff3c000000faffffff49000000ffffffff
    - index: 89
      x: 398
      y: 931
      width: 74
      height: 93
      offsetX: 0
      offsetY: 9
      advance: 74
      channel: 15
      kerning: 24000000feffffff2c000000feffffff2e000000fdffffff2f000000faffffff36000000feffffff37000000f4ffffff3c000000faffffff44000000ffffffff4b000000ffffffff50000000ffffffff51000000ffffffff52000000ffffffff57000000ffffffff
    - index: 90
      x: 360
      y: 833
      width: 65
      height: 93
      offsetX: 4
      offsetY: 9
      advance: 72
      channel: 15
      kerning: 24000000ffffffff25000000010000002e000000fcffffff36000000ffffffff37000000f4ffffff3d000000feffffff44000000ffffffff4b000000ffffffff50000000ffffffff51000000ffffffff
    - index: 91
      x: 279
      y: 467
      width: 33
      height: 122
      offsetX: 10
      offsetY: 5
      advance: 49
      channel: 15
      kerning: 52000000ffffffff
    - index: 92
      x: 101
      y: 445
      width: 47
      height: 117
      offsetX: 3
      offsetY: 5
      advance: 49
      channel: 15
      kerning: 24000000feffffff2e000000fdffffff2f000000faffffff35000000fdffffff36000000feffffff37000000f4ffffff39000000fcffffff3a000000fdffffff3b000000fcffffff3d000000fcffffff44000000ffffffff49000000feffffff4b000000ffffffff50000000ffffffff51000000ffffffff52000000ffffffff57000000ffffffff
    - index: 93
      x: 279
      y: 344
      width: 33
      height: 122
      offsetX: 6
      offsetY: 5
      advance: 49
      channel: 15
      kerning: 37000000f6ffffff
    - index: 94
      x: 474
      y: 782
      width: 77
      height: 50
      offsetX: 8
      offsetY: 9
      advance: 93
      channel: 15
      kerning: 
    - index: 95
      x: 931
      y: 945
      width: 72
      height: 8
      offsetX: -1
      offsetY: 113
      advance: 70
      channel: 15
      kerning: 
    - index: 96
      x: 769
      y: 928
      width: 26
      height: 23
      offsetX: 16
      offsetY: -2
      advance: 70
      channel: 15
      kerning: 37000000010000004900000006000000
    - index: 97
      x: 402
      y: 686
      width: 55
      height: 74
      offsetX: 4
      offsetY: 30
      advance: 67
      channel: 15
      kerning: 
    - index: 98
      x: 219
      y: 634
      width: 58
      height: 99
      offsetX: 9
      offsetY: 5
      advance: 71
      channel: 15
      kerning: 
    - index: 99
      x: 458
      y: 686
      width: 53
      height: 74
      offsetX: 4
      offsetY: 30
      advance: 59
      channel: 15
      kerning: 
    - index: 100
      x: 154
      y: 439
      width: 59
      height: 100
      offsetX: 4
      offsetY: 4
      advance: 71
      channel: 15
      kerning: 2f000000ffffffff37000000feffffff3b000000ffffffff3d000000ffffffff
    - index: 101
      x: 342
      y: 686
      width: 59
      height: 74
      offsetX: 4
      offsetY: 30
      advance: 67
      channel: 15
      kerning: 
    - index: 102
      x: 101
      y: 126
      width: 44
      height: 98
      offsetX: 2
      offsetY: 4
      advance: 41
      channel: 15
      kerning: 
    - index: 103
      x: 154
      y: 339
      width: 59
      height: 99
      offsetX: 4
      offsetY: 30
      advance: 71
      channel: 15
      kerning: 
    - index: 104
      x: 219
      y: 145
      width: 54
      height: 97
      offsetX: 9
      offsetY: 5
      advance: 71
      channel: 15
      kerning: 
    - index: 105
      x: 87
      y: 700
      width: 13
      height: 93
      offsetX: 8
      offsetY: 9
      advance: 29
      channel: 15
      kerning: 
    - index: 106
      x: 279
      y: 223
      width: 33
      height: 120
      offsetX: -5
      offsetY: 9
      advance: 36
      channel: 15
      kerning: 
    - index: 107
      x: 219
      y: 437
      width: 58
      height: 97
      offsetX: 9
      offsetY: 5
      advance: 64
      channel: 15
      kerning: 
    - index: 108
      x: 84
      y: 598
      width: 12
      height: 97
      offsetX: 9
      offsetY: 5
      advance: 29
      channel: 15
      kerning: 
    - index: 109
      x: 769
      y: 952
      width: 92
      height: 72
      offsetX: 8
      offsetY: 30
      advance: 108
      channel: 15
      kerning: 
    - index: 110
      x: 512
      y: 688
      width: 54
      height: 72
      offsetX: 9
      offsetY: 30
      advance: 71
      channel: 15
      kerning: 
    - index: 111
      x: 279
      y: 686
      width: 62
      height: 74
      offsetX: 4
      offsetY: 30
      advance: 70
      channel: 15
      kerning: 55000000ffffffff5b000000ffffffff5c000000ffffffff5d000000ffffffff
    - index: 112
      x: 219
      y: 535
      width: 58
      height: 98
      offsetX: 9
      offsetY: 30
      advance: 71
      channel: 15
      kerning: 49000000ffffffff55000000ffffffff
    - index: 113
      x: 219
      y: 734
      width: 59
      height: 98
      offsetX: 4
      offsetY: 30
      advance: 71
      channel: 15
      kerning: 
    - index: 114
      x: 740
      y: 762
      width: 36
      height: 70
      offsetX: 9
      offsetY: 32
      advance: 46
      channel: 15
      kerning: 
    - index: 115
      x: 622
      y: 686
      width: 50
      height: 74
      offsetX: 5
      offsetY: 30
      advance: 57
      channel: 15
      kerning: 
    - index: 116
      x: 279
      y: 130
      width: 42
      height: 92
      offsetX: 1
      offsetY: 12
      advance: 43
      channel: 15
      kerning: 
    - index: 117
      x: 567
      y: 688
      width: 54
      height: 72
      offsetX: 9
      offsetY: 32
      advance: 71
      channel: 15
      kerning: 
    - index: 118
      x: 347
      y: 762
      width: 64
      height: 70
      offsetX: 0
      offsetY: 32
      advance: 64
      channel: 15
      kerning: 49000000080000004f00000001000000
    - index: 119
      x: 931
      y: 954
      width: 91
      height: 70
      offsetX: 2
      offsetY: 32
      advance: 95
      channel: 15
      kerning: 4f00000001000000
    - index: 120
      x: 412
      y: 762
      width: 61
      height: 70
      offsetX: 1
      offsetY: 32
      advance: 63
      channel: 15
      kerning: 
    - index: 121
      x: 154
      y: 736
      width: 64
      height: 96
      offsetX: 0
      offsetY: 32
      advance: 64
      channel: 15
      kerning: 
    - index: 122
      x: 552
      y: 762
      width: 52
      height: 70
      offsetX: 3
      offsetY: 32
      advance: 57
      channel: 15
      kerning: 
    - index: 123
      x: 101
      y: 804
      width: 52
      height: 122
      offsetX: 4
      offsetY: 5
      advance: 62
      channel: 15
      kerning: 
    - index: 124
      x: 140
      y: 226
      width: 11
      height: 122
      offsetX: 19
      offsetY: 5
      advance: 49
      channel: 15
      kerning: 
    - index: 125
      x: 101
      y: 681
      width: 51
      height: 122
      offsetX: 7
      offsetY: 5
      advance: 62
      channel: 15
      kerning: 
    - index: 126
      x: 662
      y: 799
      width: 77
      height: 33
      offsetX: 8
      offsetY: 44
      advance: 93
      channel: 15
      kerning: 
  mAtlas: {fileID: 0}
  mReplacement: {fileID: 0}
  mSymbols: []
  mDynamicFont: {fileID: 0}
  mDynamicFontSize: 16
  mDynamicFontStyle: 0
