%YAML 1.1
%TAG !u! tag:unity3d.com,2011:
--- !u!1001 &100100000
Prefab:
  m_ObjectHideFlags: 1
  serializedVersion: 2
  m_Modification:
    m_TransformParent: {fileID: 0}
    m_Modifications: []
    m_RemovedComponents: []
  m_ParentPrefab: {fileID: 0}
  m_RootGameObject: {fileID: 1932298839065686}
  m_IsPrefabParent: 1
--- !u!1 &1932298839065686
GameObject:
  m_ObjectHideFlags: 0
  m_PrefabParentObject: {fileID: 0}
  m_PrefabInternal: {fileID: 100100000}
  serializedVersion: 5
  m_Component:
  - component: {fileID: 4025689684010172}
  - component: {fileID: 114634585944457094}
  m_Layer: 0
  m_Name: Tahoma
  m_TagString: Untagged
  m_Icon: {fileID: 0}
  m_NavMeshLayer: 0
  m_StaticEditorFlags: 0
  m_IsActive: 1
--- !u!4 &4025689684010172
Transform:
  m_ObjectHideFlags: 1
  m_PrefabParentObject: {fileID: 0}
  m_PrefabInternal: {fileID: 100100000}
  m_GameObject: {fileID: 1932298839065686}
  m_LocalRotation: {x: 0, y: 0, z: 0, w: 1}
  m_LocalPosition: {x: 0, y: 0, z: 0}
  m_LocalScale: {x: 1, y: 1, z: 1}
  m_Children: []
  m_Father: {fileID: 0}
  m_RootOrder: 0
  m_LocalEulerAnglesHint: {x: 0, y: 0, z: 0}
--- !u!114 &114634585944457094
MonoBehaviour:
  m_ObjectHideFlags: 1
  m_PrefabParentObject: {fileID: 0}
  m_PrefabInternal: {fileID: 100100000}
  m_GameObject: {fileID: 1932298839065686}
  m_Enabled: 1
  m_EditorHideFlags: 0
  m_Script: {fileID: 11500000, guid: 0b4eb3a400afab046abb8471a9d746d6, type: 3}
  m_Name: 
  m_EditorClassIdentifier: 
  mMat: {fileID: 2100000, guid: 5e720c179e4963b4d96bbae71b4d340b, type: 2}
  mUVRect:
    serializedVersion: 2
    x: 0
    y: 0
    width: 1
    height: 1
  mFont:
    mSize: 28
    mBase: 0
    mWidth: 256
    mHeight: 128
    mSpriteName: 
    mSaved:
    - index: 32
      x: 0
      y: 0
      width: 0
      height: 0
      offsetX: 0
      offsetY: 0
      advance: 9
      channel: 15
      kerning: 
    - index: 33
      x: 20
      y: 16
      width: 3
      height: 20
      offsetX: 3
      offsetY: 2
      advance: 9
      channel: 15
      kerning: 
    - index: 34
      x: 156
      y: 1
      width: 8
      height: 8
      offsetX: 2
      offsetY: 1
      advance: 11
      channel: 15
      kerning: 290000000100000037000000010000004900000002000000
    - index: 35
      x: 45
      y: 59
      width: 16
      height: 20
      offsetX: 2
      offsetY: 2
      advance: 20
      channel: 15
      kerning: 
    - index: 36
      x: 45
      y: 80
      width: 12
      height: 27
      offsetX: 2
      offsetY: 0
      advance: 15
      channel: 15
      kerning: 29000000ffffffff2f000000ffffffff33000000ffffffff37000000feffffff39000000ffffffff3a000000ffffffff3c000000ffffffff
    - index: 37
      x: 0
      y: 87
      width: 25
      height: 20
      offsetX: 1
      offsetY: 2
      advance: 27
      channel: 15
      kerning: 
    - index: 38
      x: 0
      y: 16
      width: 19
      height: 20
      offsetX: 1
      offsetY: 2
      advance: 19
      channel: 15
      kerning: 37000000ffffffff
    - index: 39
      x: 79
      y: 83
      width: 3
      height: 8
      offsetX: 1
      offsetY: 1
      advance: 6
      channel: 15
      kerning: 
    - index: 40
      x: 140
      y: 14
      width: 8
      height: 27
      offsetX: 1
      offsetY: 1
      advance: 11
      channel: 15
      kerning: 
    - index: 41
      x: 140
      y: 42
      width: 8
      height: 27
      offsetX: 2
      offsetY: 1
      advance: 11
      channel: 15
      kerning: 
    - index: 42
      x: 140
      y: 0
      width: 12
      height: 13
      offsetX: 2
      offsetY: 1
      advance: 15
      channel: 15
      kerning: 37000000ffffffff
    - index: 43
      x: 45
      y: 0
      width: 16
      height: 16
      offsetX: 2
      offsetY: 5
      advance: 20
      channel: 15
      kerning: 
    - index: 44
      x: 78
      y: 19
      width: 6
      height: 9
      offsetX: 1
      offsetY: 18
      advance: 8
      channel: 15
      kerning: 
    - index: 45
      x: 97
      y: 0
      width: 8
      height: 2
      offsetX: 1
      offsetY: 12
      advance: 10
      channel: 15
      kerning: 29000000ffffffff2f0000000100000033000000ffffffff37000000ffffffff3c000000ffffffff
    - index: 46
      x: 19
      y: 37
      width: 3
      height: 4
      offsetX: 3
      offsetY: 18
      advance: 8
      channel: 15
      kerning: 
    - index: 47
      x: 85
      y: 23
      width: 10
      height: 25
      offsetX: 0
      offsetY: 1
      advance: 11
      channel: 15
      kerning: 
    - index: 48
      x: 126
      y: 66
      width: 13
      height: 20
      offsetX: 1
      offsetY: 2
      advance: 15
      channel: 15
      kerning: 
    - index: 49
      x: 140
      y: 70
      width: 11
      height: 20
      offsetX: 3
      offsetY: 2
      advance: 15
      channel: 15
      kerning: 
    - index: 50
      x: 112
      y: 86
      width: 13
      height: 20
      offsetX: 1
      offsetY: 2
      advance: 15
      channel: 15
      kerning: 37000000ffffffff
    - index: 51
      x: 205
      y: 108
      width: 12
      height: 20
      offsetX: 1
      offsetY: 2
      advance: 15
      channel: 15
      kerning: 
    - index: 52
      x: 97
      y: 66
      width: 14
      height: 20
      offsetX: 1
      offsetY: 2
      advance: 15
      channel: 15
      kerning: 
    - index: 53
      x: 192
      y: 108
      width: 12
      height: 20
      offsetX: 2
      offsetY: 2
      advance: 15
      channel: 15
      kerning: 
    - index: 54
      x: 112
      y: 65
      width: 13
      height: 20
      offsetX: 1
      offsetY: 2
      advance: 15
      channel: 15
      kerning: 
    - index: 55
      x: 126
      y: 108
      width: 13
      height: 20
      offsetX: 1
      offsetY: 2
      advance: 15
      channel: 15
      kerning: 24000000feffffff25000000ffffffff27000000ffffffff2f000000feffffff32000000ffffffff35000000ffffffff46000000ffffffff48000000feffffff
    - index: 56
      x: 112
      y: 44
      width: 13
      height: 20
      offsetX: 1
      offsetY: 2
      advance: 15
      channel: 15
      kerning: 
    - index: 57
      x: 112
      y: 23
      width: 13
      height: 20
      offsetX: 1
      offsetY: 2
      advance: 15
      channel: 15
      kerning: 24000000ffffffff2f000000ffffffff
    - index: 58
      x: 22
      y: 0
      width: 3
      height: 15
      offsetX: 3
      offsetY: 7
      advance: 10
      channel: 15
      kerning: 24000000ffffffff2f000000ffffffff
    - index: 59
      x: 19
      y: 42
      width: 6
      height: 20
      offsetX: 1
      offsetY: 7
      advance: 10
      channel: 15
      kerning: 
    - index: 60
      x: 231
      y: 113
      width: 15
      height: 15
      offsetX: 3
      offsetY: 6
      advance: 20
      channel: 15
      kerning: 24000000ffffffff2f000000feffffff37000000ffffffff
    - index: 61
      x: 185
      y: 66
      width: 15
      height: 8
      offsetX: 3
      offsetY: 9
      advance: 20
      channel: 15
      kerning: 
    - index: 62
      x: 140
      y: 91
      width: 15
      height: 15
      offsetX: 3
      offsetY: 6
      advance: 20
      channel: 15
      kerning: 
    - index: 63
      x: 85
      y: 2
      width: 11
      height: 20
      offsetX: 1
      offsetY: 2
      advance: 13
      channel: 15
      kerning: 4900000001000000
    - index: 64
      x: 0
      y: 63
      width: 21
      height: 23
      offsetX: 2
      offsetY: 2
      advance: 25
      channel: 15
      kerning: 4900000001000000
    - index: 65
      x: 26
      y: 24
      width: 17
      height: 20
      offsetX: 0
      offsetY: 2
      advance: 17
      channel: 15
      kerning: 
    - index: 66
      x: 97
      y: 45
      width: 14
      height: 20
      offsetX: 2
      offsetY: 2
      advance: 17
      channel: 15
      kerning: 
    - index: 67
      x: 63
      y: 71
      width: 15
      height: 20
      offsetX: 1
      offsetY: 2
      advance: 17
      channel: 15
      kerning: 
    - index: 68
      x: 45
      y: 17
      width: 16
      height: 20
      offsetX: 2
      offsetY: 2
      advance: 19
      channel: 15
      kerning: 29000000ffffffff2e000000ffffffff33000000ffffffff37000000fdffffff39000000ffffffff3a000000ffffffff3c000000feffffff3d000000ffffffff59000000ffffffff5c000000ffffffff
    - index: 69
      x: 112
      y: 2
      width: 13
      height: 20
      offsetX: 2
      offsetY: 2
      advance: 16
      channel: 15
      kerning: 
    - index: 70
      x: 126
      y: 87
      width: 13
      height: 20
      offsetX: 2
      offsetY: 2
      advance: 15
      channel: 15
      kerning: 37000000fdffffff
    - index: 71
      x: 45
      y: 108
      width: 17
      height: 20
      offsetX: 1
      offsetY: 2
      advance: 19
      channel: 15
      kerning: 3c000000feffffff
    - index: 72
      x: 63
      y: 29
      width: 15
      height: 20
      offsetX: 2
      offsetY: 2
      advance: 19
      channel: 15
      kerning: 29000000ffffffff2e000000ffffffff33000000ffffffff37000000fdffffff39000000ffffffff3a000000ffffffff3b000000ffffffff3c000000feffffff3d000000ffffffff
    - index: 73
      x: 247
      y: 108
      width: 9
      height: 20
      offsetX: 1
      offsetY: 2
      advance: 10
      channel: 15
      kerning: 
    - index: 74
      x: 156
      y: 64
      width: 10
      height: 20
      offsetX: 0
      offsetY: 2
      advance: 12
      channel: 15
      kerning: 37000000fdffffff3c000000feffffff
    - index: 75
      x: 97
      y: 3
      width: 14
      height: 20
      offsetX: 2
      offsetY: 2
      advance: 16
      channel: 15
      kerning: 
    - index: 76
      x: 179
      y: 108
      width: 12
      height: 20
      offsetX: 2
      offsetY: 2
      advance: 14
      channel: 15
      kerning: 
    - index: 77
      x: 26
      y: 87
      width: 18
      height: 20
      offsetX: 2
      offsetY: 2
      advance: 22
      channel: 15
      kerning: 3e000000010000005e00000001000000
    - index: 78
      x: 63
      y: 92
      width: 15
      height: 20
      offsetX: 2
      offsetY: 2
      advance: 19
      channel: 15
      kerning: 
    - index: 79
      x: 26
      y: 108
      width: 18
      height: 20
      offsetX: 1
      offsetY: 2
      advance: 20
      channel: 15
      kerning: 
    - index: 80
      x: 218
      y: 108
      width: 12
      height: 20
      offsetX: 2
      offsetY: 2
      advance: 15
      channel: 15
      kerning: 3c000000ffffffff
    - index: 81
      x: 0
      y: 37
      width: 18
      height: 25
      offsetX: 1
      offsetY: 2
      advance: 20
      channel: 15
      kerning: 3c000000ffffffff
    - index: 82
      x: 63
      y: 50
      width: 15
      height: 20
      offsetX: 2
      offsetY: 2
      advance: 17
      channel: 15
      kerning: 29000000ffffffff2e000000ffffffff33000000ffffffff37000000fdffffff39000000ffffffff3a000000ffffffff3b000000ffffffff3c000000feffffff3d000000ffffffff
    - index: 83
      x: 97
      y: 24
      width: 14
      height: 20
      offsetX: 1
      offsetY: 2
      advance: 16
      channel: 15
      kerning: 3c000000ffffffff
    - index: 84
      x: 26
      y: 3
      width: 17
      height: 20
      offsetX: 0
      offsetY: 2
      advance: 16
      channel: 15
      kerning: 3c000000feffffff
    - index: 85
      x: 97
      y: 108
      width: 14
      height: 20
      offsetX: 2
      offsetY: 2
      advance: 18
      channel: 15
      kerning: 37000000fdffffff3c000000ffffffff
    - index: 86
      x: 26
      y: 45
      width: 17
      height: 20
      offsetX: 0
      offsetY: 2
      advance: 17
      channel: 15
      kerning: 37000000feffffff3c000000ffffffff
    - index: 87
      x: 0
      y: 108
      width: 25
      height: 20
      offsetX: 0
      offsetY: 2
      advance: 25
      channel: 15
      kerning: 
    - index: 88
      x: 45
      y: 38
      width: 16
      height: 20
      offsetX: 0
      offsetY: 2
      advance: 16
      channel: 15
      kerning: 2e000000ffffffff37000000fdffffff39000000ffffffff3c000000ffffffff
    - index: 89
      x: 26
      y: 66
      width: 17
      height: 20
      offsetX: 0
      offsetY: 2
      advance: 16
      channel: 15
      kerning: 2e000000ffffffff2f000000ffffffff37000000fdffffff3c000000ffffffff
    - index: 90
      x: 97
      y: 87
      width: 14
      height: 20
      offsetX: 1
      offsetY: 2
      advance: 16
      channel: 15
      kerning: 2e000000ffffffff37000000fdffffff3d000000ffffffff
    - index: 91
      x: 167
      y: 64
      width: 7
      height: 26
      offsetX: 2
      offsetY: 1
      advance: 11
      channel: 15
      kerning: 
    - index: 92
      x: 85
      y: 49
      width: 10
      height: 25
      offsetX: 1
      offsetY: 1
      advance: 11
      channel: 15
      kerning: 2e000000ffffffff2f000000ffffffff35000000ffffffff37000000fdffffff39000000ffffffff3a000000ffffffff3b000000ffffffff3d000000ffffffff
    - index: 93
      x: 156
      y: 10
      width: 7
      height: 26
      offsetX: 1
      offsetY: 1
      advance: 11
      channel: 15
      kerning: 37000000feffffff
    - index: 94
      x: 225
      y: 95
      width: 17
      height: 11
      offsetX: 2
      offsetY: 2
      advance: 20
      channel: 15
      kerning: 
    - index: 95
      x: 26
      y: 0
      width: 15
      height: 2
      offsetX: 0
      offsetY: 24
      advance: 15
      channel: 15
      kerning: 
    - index: 96
      x: 63
      y: 1
      width: 6
      height: 5
      offsetX: 3
      offsetY: -1
      advance: 15
      channel: 15
      kerning: 4900000001000000
    - index: 97
      x: 188
      y: 75
      width: 12
      height: 15
      offsetX: 1
      offsetY: 7
      advance: 15
      channel: 15
      kerning: 
    - index: 98
      x: 140
      y: 107
      width: 12
      height: 21
      offsetX: 2
      offsetY: 1
      advance: 15
      channel: 15
      kerning: 
    - index: 99
      x: 213
      y: 75
      width: 11
      height: 15
      offsetX: 1
      offsetY: 7
      advance: 13
      channel: 15
      kerning: 
    - index: 100
      x: 153
      y: 107
      width: 12
      height: 21
      offsetX: 1
      offsetY: 1
      advance: 15
      channel: 15
      kerning: 37000000ffffffff
    - index: 101
      x: 197
      y: 91
      width: 13
      height: 15
      offsetX: 1
      offsetY: 7
      advance: 15
      channel: 15
      kerning: 
    - index: 102
      x: 156
      y: 85
      width: 10
      height: 21
      offsetX: 0
      offsetY: 1
      advance: 9
      channel: 15
      kerning: 
    - index: 103
      x: 126
      y: 44
      width: 12
      height: 21
      offsetX: 1
      offsetY: 7
      advance: 15
      channel: 15
      kerning: 
    - index: 104
      x: 126
      y: 0
      width: 12
      height: 21
      offsetX: 2
      offsetY: 1
      advance: 16
      channel: 15
      kerning: 
    - index: 105
      x: 79
      y: 92
      width: 3
      height: 20
      offsetX: 2
      offsetY: 2
      advance: 6
      channel: 15
      kerning: 
    - index: 106
      x: 156
      y: 37
      width: 7
      height: 26
      offsetX: -1
      offsetY: 2
      advance: 8
      channel: 15
      kerning: 
    - index: 107
      x: 112
      y: 107
      width: 13
      height: 21
      offsetX: 2
      offsetY: 1
      advance: 14
      channel: 15
      kerning: 
    - index: 108
      x: 22
      y: 65
      width: 3
      height: 21
      offsetX: 2
      offsetY: 1
      advance: 6
      channel: 15
      kerning: 
    - index: 109
      x: 63
      y: 113
      width: 21
      height: 15
      offsetX: 2
      offsetY: 7
      advance: 24
      channel: 15
      kerning: 
    - index: 110
      x: 175
      y: 75
      width: 12
      height: 15
      offsetX: 2
      offsetY: 7
      advance: 16
      channel: 15
      kerning: 
    - index: 111
      x: 211
      y: 91
      width: 13
      height: 15
      offsetX: 1
      offsetY: 7
      advance: 15
      channel: 15
      kerning: 
    - index: 112
      x: 126
      y: 22
      width: 12
      height: 21
      offsetX: 2
      offsetY: 7
      advance: 15
      channel: 15
      kerning: 
    - index: 113
      x: 166
      y: 107
      width: 12
      height: 21
      offsetX: 1
      offsetY: 7
      advance: 15
      channel: 15
      kerning: 
    - index: 114
      x: 236
      y: 75
      width: 8
      height: 15
      offsetX: 2
      offsetY: 7
      advance: 10
      channel: 15
      kerning: 
    - index: 115
      x: 201
      y: 75
      width: 11
      height: 15
      offsetX: 1
      offsetY: 7
      advance: 13
      channel: 15
      kerning: 
    - index: 116
      x: 175
      y: 55
      width: 9
      height: 19
      offsetX: 0
      offsetY: 3
      advance: 9
      channel: 15
      kerning: 
    - index: 117
      x: 243
      y: 91
      width: 12
      height: 15
      offsetX: 2
      offsetY: 7
      advance: 16
      channel: 15
      kerning: 
    - index: 118
      x: 167
      y: 91
      width: 14
      height: 15
      offsetX: 0
      offsetY: 7
      advance: 14
      channel: 15
      kerning: 4900000002000000
    - index: 119
      x: 0
      y: 0
      width: 21
      height: 15
      offsetX: 0
      offsetY: 7
      advance: 21
      channel: 15
      kerning: 
    - index: 120
      x: 182
      y: 91
      width: 14
      height: 15
      offsetX: 0
      offsetY: 7
      advance: 14
      channel: 15
      kerning: 
    - index: 121
      x: 63
      y: 7
      width: 14
      height: 21
      offsetX: 0
      offsetY: 7
      advance: 14
      channel: 15
      kerning: 
    - index: 122
      x: 225
      y: 75
      width: 10
      height: 15
      offsetX: 1
      offsetY: 7
      advance: 12
      channel: 15
      kerning: 
    - index: 123
      x: 85
      y: 75
      width: 11
      height: 26
      offsetX: 1
      offsetY: 1
      advance: 13
      channel: 15
      kerning: 
    - index: 124
      x: 58
      y: 81
      width: 3
      height: 26
      offsetX: 4
      offsetY: 1
      advance: 11
      channel: 15
      kerning: 
    - index: 125
      x: 85
      y: 102
      width: 11
      height: 26
      offsetX: 2
      offsetY: 1
      advance: 13
      channel: 15
      kerning: 
    - index: 126
      x: 201
      y: 67
      width: 16
      height: 7
      offsetX: 2
      offsetY: 10
      advance: 20
      channel: 15
      kerning: 
  mAtlas: {fileID: 0}
  mReplacement: {fileID: 0}
  mSymbols: []
  mDynamicFont: {fileID: 0}
  mDynamicFontSize: 16
  mDynamicFontStyle: 0
